"""Comanda Actual:""","""0-CAC""","""""","""""","""""","""""","""""","""""",""""""
"""Periode pre-comanda:""","""11-08-14:24-08-14"""
"""Data:""","""07-09-2014 08:07:16"""
"""id""","""producte""","""preu""","""ms""","""format""","""cost_transport_extern_kg""","""ms_ctek""","""cost_transport_intern_kg""","""ms_ctik""","""Quantitat""","""cost Unitats""","""cost Ecos""","""cost Euros""","""ctek Unitats""","""ctek Ecos""","""ctek Euros""","""ctik Unitats""","""ctik Ecos""","""ctik Euros""","""ctear Unitats""","""ctear Ecos""","""ctear Euros""","""ctiar Unitats""","""ctiar Ecos""","""ctiar Euros"""
"""314""","""alcoholat+de+roman%ED+%28125+ml%29""","""7""","""25""","""1""","""0""","""0""","""0.21""","""0""","""4.00""","""28.00""","""7.00""","""21.00""","""0.00""","""0.00""","""0.00""","""0.84""","""0.00""","""0.84""","""0.00""","""0.00""","""0.00""","""0.00""","""0.00""","""0.00"""
"""265""","""Ametlla+amb+cloba+-+Marcona+-+bossa+3kg""","""2.63""","""25""","""3""","""0""","""0""","""0""","""0""","""72.00""","""189.36""","""47.34""","""142.02""","""0.00""","""0.00""","""0.00""","""0.00""","""0.00""","""0.00""","""0.00""","""0.00""","""0.00""","""0.00""","""0.00""","""0.00"""
"""313""","""argila+blanca+%28500+gr%29""","""6""","""25""","""1""","""0""","""0""","""0.21""","""0""","""5.00""","""30.00""","""7.50""","""22.50""","""0.00""","""0.00""","""0.00""","""1.05""","""0.00""","""1.05""","""0.00""","""0.00""","""0.00""","""0.00""","""0.00""","""0.00"""
"""292""","""Arr%F2s+integral+ECO%2C+envasat+al+buit+%281kg%29""","""2.81""","""0""","""1""","""0""","""0""","""0.21""","""0""","""140.00""","""393.40""","""0.00""","""393.40""","""0.00""","""0.00""","""0.00""","""29.40""","""0.00""","""29.40""","""0.00""","""0.00""","""0.00""","""0.00""","""0.00""","""0.00"""
"""18""","""arr%F2s+integral+ecol%F2gic+%2825+kg%29""","""2.07""","""0""","""25""","""0""","""0""","""0.21""","""0""","""0.00""","""0.00""","""0.00""","""0.00""","""0.00""","""0.00""","""0.00""","""0.00""","""0.00""","""0.00""","""0.00""","""0.00""","""0.00""","""0.00""","""0.00""","""0.00"""
"""253""","""avellana+amb+clova++%283+kg%29""","""3.38""","""30""","""3""","""0""","""0""","""0.21""","""0""","""42.00""","""141.96""","""42.59""","""99.37""","""0.00""","""0.00""","""0.00""","""8.82""","""0.00""","""8.82""","""0.00""","""0.00""","""0.00""","""0.00""","""0.00""","""0.00"""
"""64""","""avellana+amb+clova++%28bossa+4+kg%29""","""3.38""","""30""","""4""","""0""","""0""","""0.21""","""0""","""40.00""","""135.20""","""40.56""","""94.64""","""0.00""","""0.00""","""0.00""","""8.40""","""0.00""","""8.40""","""0.00""","""0.00""","""0.00""","""0.00""","""0.00""","""0.00"""
"""252""","""bid%F3+buit+xarxa+posa-hi-oli+%2825+l%29""","""0.01""","""0""","""1""","""0""","""0""","""0.1""","""0""","""4.00""","""0.04""","""0.00""","""0.04""","""0.00""","""0.00""","""0.00""","""0.40""","""0.00""","""0.40""","""0.00""","""0.00""","""0.00""","""0.00""","""0.00""","""0.00"""
"""92""","""bosses+paper+15X27cm+%2850%29+""","""1.92""","""0""","""1""","""0""","""0""","""0.21""","""0""","""21.00""","""40.32""","""0.00""","""40.32""","""0.00""","""0.00""","""0.00""","""4.41""","""0.00""","""4.41""","""0.00""","""0.00""","""0.00""","""0.00""","""0.00""","""0.00"""
"""94""","""bosses+paper+28X47+cm2+%2850%29+""","""6.18""","""0""","""1""","""0""","""0""","""0.21""","""0""","""5.00""","""30.90""","""0.00""","""30.90""","""0.00""","""0.00""","""0.00""","""1.05""","""0.00""","""1.05""","""0.00""","""0.00""","""0.00""","""0.00""","""0.00""","""0.00"""
"""333""","""BOTONS+d%27arr%F2s+%28200-220+gr%29++""","""2.25""","""100""","""1""","""0""","""0""","""0.21""","""0""","""20.00""","""45.00""","""45.00""","""0.00""","""0.00""","""0.00""","""0.00""","""4.20""","""0.00""","""4.20""","""0.00""","""0.00""","""0.00""","""0.00""","""0.00""","""0.00"""
"""334""","""BOTONS+d%27arr%F2s+i+gomasi+%28200-220+gr%29++""","""2.25""","""100""","""1""","""0""","""0""","""0.21""","""0""","""20.00""","""45.00""","""45.00""","""0.00""","""0.00""","""0.00""","""0.00""","""4.20""","""0.00""","""4.20""","""0.00""","""0.00""","""0.00""","""0.00""","""0.00""","""0.00"""
"""153""","""caf%E8+m%F2lt+Rebeldia+%28250+gr%29+-Chiapas""","""3.15""","""0""","""1""","""0""","""0""","""0.21""","""0""","""1.00""","""3.15""","""0.00""","""3.15""","""0.00""","""0.00""","""0.00""","""0.21""","""0.00""","""0.21""","""0.00""","""0.00""","""0.00""","""0.00""","""0.00""","""0.00"""
"""115""","""Caixa+Cartr%F2+Kraft+40x30x30+cms+%28pack+de+10%29""","""7.63""","""0""","""1""","""0""","""0""","""0.21""","""0""","""4.00""","""30.52""","""0.00""","""30.52""","""0.00""","""0.00""","""0.00""","""0.84""","""0.00""","""0.84""","""0.00""","""0.00""","""0.00""","""0.00""","""0.00""","""0.00"""
"""116""","""Caixa+Cartr%F2+Kraft+45x30x35+cms+%28pack+de+10%29""","""11.2""","""0""","""1""","""0""","""0""","""0.21""","""0""","""3.00""","""33.60""","""0.00""","""33.60""","""0.00""","""0.00""","""0.00""","""0.63""","""0.00""","""0.63""","""0.00""","""0.00""","""0.00""","""0.00""","""0.00""","""0.00"""
"""307""","""Caixa+Cartr%F2+Kraft+GROSSA%28pack+de+10%29""","""15""","""0""","""1""","""0""","""0""","""0.21""","""0""","""2.00""","""30.00""","""0.00""","""30.00""","""0.00""","""0.00""","""0.00""","""0.42""","""0.00""","""0.42""","""0.00""","""0.00""","""0.00""","""0.00""","""0.00""","""0.00"""
"""269""","""caixes+fusta++%28volum%3A+10+kg+taronja%29""","""1""","""0""","""1""","""0""","""0""","""0.21""","""0""","""80.00""","""80.00""","""0.00""","""80.00""","""0.00""","""0.00""","""0.00""","""16.80""","""0.00""","""16.80""","""0.00""","""0.00""","""0.00""","""0.00""","""0.00""","""0.00"""
"""302""","""carquinyolis+%28320-350+gr%29""","""5.4""","""20""","""1""","""0""","""0""","""0.21""","""0""","""4.00""","""21.60""","""4.32""","""17.28""","""0.00""","""0.00""","""0.00""","""0.84""","""0.00""","""0.84""","""0.00""","""0.00""","""0.00""","""0.00""","""0.00""","""0.00"""
"""308""","""Codonyat+%28150+gr+-+al+buit%29""","""2.25""","""50""","""1""","""0""","""0""","""0.21""","""0""","""12.00""","""27.00""","""13.50""","""13.50""","""0.00""","""0.00""","""0.00""","""2.52""","""0.00""","""2.52""","""0.00""","""0.00""","""0.00""","""0.00""","""0.00""","""0.00"""
"""309""","""Codonyat+%28200+gr+-+al+buit%29""","""3""","""50""","""1""","""0""","""0""","""0.21""","""0""","""14.00""","""42.00""","""21.00""","""21.00""","""0.00""","""0.00""","""0.00""","""2.94""","""0.00""","""2.94""","""0.00""","""0.00""","""0.00""","""0.00""","""0.00""","""0.00"""
"""310""","""Codonyat+%28300+gr+-+al+buit%29""","""4.5""","""50""","""1""","""0""","""0""","""0.21""","""0""","""4.00""","""18.00""","""9.00""","""9.00""","""0.00""","""0.00""","""0.00""","""0.84""","""0.00""","""0.84""","""0.00""","""0.00""","""0.00""","""0.00""","""0.00""","""0.00"""
"""311""","""Codonyat+%28400+gr+-+al+buit%29""","""6""","""50""","""1""","""0""","""0""","""0.21""","""0""","""2.00""","""12.00""","""6.00""","""6.00""","""0.00""","""0.00""","""0.00""","""0.42""","""0.00""","""0.42""","""0.00""","""0.00""","""0.00""","""0.00""","""0.00""","""0.00"""
"""158""","""crema+de+mans+%2880+ml%29""","""8""","""25""","""1""","""0""","""0""","""0.21""","""0""","""1.00""","""8.00""","""2.00""","""6.00""","""0.00""","""0.00""","""0.00""","""0.21""","""0.00""","""0.21""","""0.00""","""0.00""","""0.00""","""0.00""","""0.00""","""0.00"""
"""166""","""crema+hidratant+mosqueta+%28+pot+vidre+50+ml%29+-+amb+retorn+""","""15""","""25""","""1""","""0""","""0""","""0.21""","""0""","""8.00""","""120.00""","""30.00""","""90.00""","""0.00""","""0.00""","""0.00""","""1.68""","""0.00""","""1.68""","""0.00""","""0.00""","""0.00""","""0.00""","""0.00""","""0.00"""
"""230""","""Crema+Hidratant+Mosqueta+-+pot+cartr%F3+recicl.%28+50+ml%29""","""14.4""","""25""","""1""","""0""","""0""","""0.21""","""0""","""10.00""","""144.00""","""36.00""","""108.00""","""0.00""","""0.00""","""0.00""","""2.10""","""0.00""","""2.10""","""0.00""","""0.00""","""0.00""","""0.00""","""0.00""","""0.00"""
"""59""","""crema+hidratant+pel+cos+%28+250+ml%29""","""15""","""25""","""1""","""0""","""0""","""0.21""","""0""","""8.00""","""120.00""","""30.00""","""90.00""","""0.00""","""0.00""","""0.00""","""1.68""","""0.00""","""1.68""","""0.00""","""0.00""","""0.00""","""0.00""","""0.00""","""0.00"""
"""159""","""crema+pels+peus+%28100+ml%29""","""8""","""25""","""1""","""0""","""0""","""0.21""","""0""","""1.00""","""8.00""","""2.00""","""6.00""","""0.00""","""0.00""","""0.00""","""0.21""","""0.00""","""0.21""","""0.00""","""0.00""","""0.00""","""0.00""","""0.00""","""0.00"""
"""315""","""desodorant+%2875+ml%29""","""8""","""25""","""1""","""0""","""0""","""0.21""","""0""","""2.00""","""16.00""","""4.00""","""12.00""","""0.00""","""0.00""","""0.00""","""0.42""","""0.00""","""0.42""","""0.00""","""0.00""","""0.00""","""0.00""","""0.00""","""0.00"""
"""169""","""Detergent+l%EDquid+rentadora+i+terra+%285+l.%29""","""15""","""25""","""1""","""0""","""0""","""0.21""","""0""","""7.00""","""105.00""","""26.25""","""78.75""","""0.00""","""0.00""","""0.00""","""1.47""","""0.00""","""1.47""","""0.00""","""0.00""","""0.00""","""0.00""","""0.00""","""0.00"""
"""353""","""Documental+DRECERES""","""10""","""50""","""1""","""0""","""0""","""0.21""","""0""","""50.00""","""500.00""","""250.00""","""250.00""","""0.00""","""0.00""","""0.00""","""10.50""","""0.00""","""10.50""","""0.00""","""0.00""","""0.00""","""0.00""","""0.00""","""0.00"""
"""164""","""Farina integral blat egipci (kamut -1 kg)""","""1.6""","""10""","""1""","""0""","""0""","""0.21""","""0""","""14.00""","""22.40""","""2.24""","""20.16""","""0.00""","""0.00""","""0.00""","""2.94""","""0.00""","""2.94""","""0.00""","""0.00""","""0.00""","""0.00""","""0.00""","""0.00"""
"""97""","""farina+arr%F2s+integral+%281+kg%29""","""2.49""","""10""","""1""","""0""","""0""","""0.21""","""0""","""3.00""","""7.47""","""0.75""","""6.72""","""0.00""","""0.00""","""0.00""","""0.63""","""0.00""","""0.63""","""0.00""","""0.00""","""0.00""","""0.00""","""0.00""","""0.00"""
"""278""","""Farina+Bon+Pain+%28sac+de+1+Kg%29""","""1.42""","""10""","""1""","""0""","""0""","""0.21""","""0""","""0.00""","""0.00""","""0.00""","""0.00""","""0.00""","""0.00""","""0.00""","""0.00""","""0.00""","""0.00""","""0.00""","""0.00""","""0.00""","""0.00""","""0.00""","""0.00"""
"""277""","""Farina+Bon+Pain+%28sac+de+25+Kg%29""","""1.1""","""10""","""25""","""0""","""0""","""0.21""","""0""","""25.00""","""27.50""","""2.75""","""24.75""","""0.00""","""0.00""","""0.00""","""5.25""","""0.00""","""5.25""","""0.00""","""0.00""","""0.00""","""0.00""","""0.00""","""0.00"""
"""9""","""Farina+integral+blat+egipci+%28kamut+-+25+kg%29""","""1.7""","""10""","""25""","""0""","""0""","""0.21""","""0""","""0.00""","""0.00""","""0.00""","""0.00""","""0.00""","""0.00""","""0.00""","""0.00""","""0.00""","""0.00""","""0.00""","""0.00""","""0.00""","""0.00""","""0.00""","""0.00"""
"""44""","""farina+xeixa+integral+%281+kg%29""","""1.58""","""10""","""1""","""0""","""0""","""0.21""","""0""","""0.00""","""0.00""","""0.00""","""0.00""","""0.00""","""0.00""","""0.00""","""0.00""","""0.00""","""0.00""","""0.00""","""0.00""","""0.00""","""0.00""","""0.00""","""0.00"""
"""341""","""FLORS+DE+CAF%C8+%28descafe%EFnat+-+360%2F390+gr%29""","""5.5""","""50""","""1""","""0""","""0""","""0.21""","""0""","""4.00""","""22.00""","""11.00""","""11.00""","""0.00""","""0.00""","""0.00""","""0.84""","""0.00""","""0.84""","""0.00""","""0.00""","""0.00""","""0.00""","""0.00""","""0.00"""
"""317""","""Galetes+salades+%28100+gr%29""","""3""","""100""","""1""","""0""","""0""","""0.21""","""0""","""40.00""","""120.00""","""120.00""","""0.00""","""0.00""","""0.00""","""0.00""","""8.40""","""0.00""","""8.40""","""0.00""","""0.00""","""0.00""","""0.00""","""0.00""","""0.00"""
"""82""","""gra+-+barreja+per+gallines+%2825+kg%29""","""0.4""","""10""","""25""","""0""","""0""","""0.21""","""0""","""0.00""","""0.00""","""0.00""","""0.00""","""0.00""","""0.00""","""0.00""","""0.00""","""0.00""","""0.00""","""0.00""","""0.00""","""0.00""","""0.00""","""0.00""","""0.00"""
"""28""","""gra+-+blat+egipci+%28kamut+-+1+kg%29""","""1.22""","""10""","""1""","""0""","""0""","""0.21""","""0""","""0.00""","""0.00""","""0.00""","""0.00""","""0.00""","""0.00""","""0.00""","""0.00""","""0.00""","""0.00""","""0.00""","""0.00""","""0.00""","""0.00""","""0.00""","""0.00"""
"""38""","""gra+-+Xeixa+%281+kg%29""","""1.63""","""10""","""1""","""0""","""0""","""0.21""","""0""","""57.00""","""92.91""","""9.29""","""83.62""","""0.00""","""0.00""","""0.00""","""11.97""","""0.00""","""11.97""","""0.00""","""0.00""","""0.00""","""0.00""","""0.00""","""0.00"""
"""280""","""Gra+blat+Bon+Pain+%28sac+de+1+Kg%29""","""0.87""","""10""","""1""","""0""","""0""","""0.21""","""0""","""94.00""","""81.78""","""8.18""","""73.60""","""0.00""","""0.00""","""0.00""","""19.74""","""0.00""","""19.74""","""0.00""","""0.00""","""0.00""","""0.00""","""0.00""","""0.00"""
"""24""","""llentia pardina ( 25 kg)""","""2.4""","""10""","""25""","""0""","""0""","""0.21""","""0""","""25.00""","""60.00""","""6.00""","""54.00""","""0.00""","""0.00""","""0.00""","""5.25""","""0.00""","""5.25""","""0.00""","""0.00""","""0.00""","""0.00""","""0.00""","""0.00"""
"""340""","""llentia+pardina+%281+kg%29""","""3""","""10""","""1""","""0""","""0""","""0.21""","""0""","""13.00""","""39.00""","""3.90""","""35.10""","""0.00""","""0.00""","""0.00""","""2.73""","""0.00""","""2.73""","""0.00""","""0.00""","""0.00""","""0.00""","""0.00""","""0.00"""
"""299""","""Melmelada+mandarina%28+480+ml%29++""","""2.6""","""100""","""1""","""0""","""0""","""0.21""","""0""","""187.00""","""486.20""","""486.20""","""0.00""","""0.00""","""0.00""","""0.00""","""39.27""","""0.00""","""39.27""","""0.00""","""0.00""","""0.00""","""0.00""","""0.00""","""0.00"""
"""297""","""Melmelada+mandarina+%28+480+ml%29++""","""2.6""","""100""","""1""","""0""","""0""","""0.21""","""0""","""30.00""","""78.00""","""78.00""","""0.00""","""0.00""","""0.00""","""0.00""","""6.30""","""0.00""","""6.30""","""0.00""","""0.00""","""0.00""","""0.00""","""0.00""","""0.00"""
"""296""","""Melmelada+mandarina+%28+480+ml%29++""","""2.6""","""100""","""1""","""0""","""0""","""0.21""","""0""","""91.00""","""236.60""","""236.60""","""0.00""","""0.00""","""0.00""","""0.00""","""19.11""","""0.00""","""19.11""","""0.00""","""0.00""","""0.00""","""0.00""","""0.00""","""0.00"""
"""298""","""Melmelada+mandarina+doble+llimona+%28480+ml%29++""","""2.6""","""100""","""1""","""0""","""0""","""0.21""","""0""","""46.00""","""119.60""","""119.60""","""0.00""","""0.00""","""0.00""","""0.00""","""9.66""","""0.00""","""9.66""","""0.00""","""0.00""","""0.00""","""0.00""","""0.00""","""0.00"""
"""101""","""mill+%281kg%29""","""1.81""","""0""","""1""","""0""","""0""","""0.21""","""0""","""6.00""","""10.86""","""0.00""","""10.86""","""0.00""","""0.00""","""0.00""","""1.26""","""0.00""","""1.26""","""0.00""","""0.00""","""0.00""","""0.00""","""0.00""","""0.00"""
"""352""","""Most+-+Macabeu+%2875+cl%29""","""2.7""","""30""","""1""","""0""","""0""","""0.21""","""0""","""40.00""","""108.00""","""32.40""","""75.60""","""0.00""","""0.00""","""0.00""","""8.40""","""0.00""","""8.40""","""0.00""","""0.00""","""0.00""","""0.00""","""0.00""","""0.00"""
"""350""","""Most+-+Parellada+%2875+cl%29""","""2.7""","""30""","""1""","""0""","""0""","""0.21""","""0""","""40.00""","""108.00""","""32.40""","""75.60""","""0.00""","""0.00""","""0.00""","""8.40""","""0.00""","""8.40""","""0.00""","""0.00""","""0.00""","""0.00""","""0.00""","""0.00"""
"""351""","""Most+-+Ull+de+Llebre+%2875+cl%29""","""3.25""","""30""","""1""","""0""","""0""","""0.21""","""0""","""40.00""","""130.00""","""39.00""","""91.00""","""0.00""","""0.00""","""0.00""","""8.40""","""0.00""","""8.40""","""0.00""","""0.00""","""0.00""","""0.00""","""0.00""","""0.00"""
"""348""","""Most+-+Xarel.lo+%2875+cl%29""","""2.7""","""30""","""1""","""0""","""0""","""0.21""","""0""","""40.00""","""108.00""","""32.40""","""75.60""","""0.00""","""0.00""","""0.00""","""8.40""","""0.00""","""8.40""","""0.00""","""0.00""","""0.00""","""0.00""","""0.00""","""0.00"""
"""233""","""oli+de+rosa+mosqueta""","""15""","""25""","""1""","""0""","""0""","""0.21""","""0""","""4.00""","""60.00""","""15.00""","""45.00""","""0.00""","""0.00""","""0.00""","""0.84""","""0.00""","""0.84""","""0.00""","""0.00""","""0.00""","""0.00""","""0.00""","""0.00"""
"""88""","""oli+de+s%E8sam+%285+l.%29""","""35.92""","""0""","""1""","""0""","""0""","""0.21""","""0""","""6.00""","""215.52""","""0.00""","""215.52""","""0.00""","""0.00""","""0.00""","""1.26""","""0.00""","""1.26""","""0.00""","""0.00""","""0.00""","""0.00""","""0.00""","""0.00"""
"""60""","""oli+hip%E8ric+%28+30+ml%29""","""6""","""25""","""1""","""0""","""0""","""0.21""","""0""","""4.00""","""24.00""","""6.00""","""18.00""","""0.00""","""0.00""","""0.00""","""0.84""","""0.00""","""0.84""","""0.00""","""0.00""","""0.00""","""0.00""","""0.00""","""0.00"""
"""316""","""oli+massatge+muscular+%28125+ml%29""","""10""","""25""","""1""","""0""","""0""","""0.21""","""0""","""3.00""","""30.00""","""7.50""","""22.50""","""0.00""","""0.00""","""0.00""","""0.63""","""0.00""","""0.63""","""0.00""","""0.00""","""0.00""","""0.00""","""0.00""","""0.00"""
"""98""","""oli+oliva+Arbequina+-+5l+%28Beran%E7a%29""","""23""","""0""","""1""","""0""","""0""","""0.21""","""0""","""16.00""","""368.00""","""0.00""","""368.00""","""0.00""","""0.00""","""0.00""","""3.36""","""0.00""","""3.36""","""0.00""","""0.00""","""0.00""","""0.00""","""0.00""","""0.00"""
"""137""","""Pasta+dent%EDfrica+S%E0lvia+BIO+%28+120+ml%29""","""4""","""25""","""1""","""0""","""0""","""0.21""","""0""","""27.00""","""108.00""","""27.00""","""81.00""","""0.00""","""0.00""","""0.00""","""5.67""","""0.00""","""5.67""","""0.00""","""0.00""","""0.00""","""0.00""","""0.00""","""0.00"""
"""26""","""pasta+dents+%2880+ml%29""","""5""","""25""","""1""","""0""","""0""","""0.21""","""0""","""6.00""","""30.00""","""7.50""","""22.50""","""0.00""","""0.00""","""0.00""","""1.26""","""0.00""","""1.26""","""0.00""","""0.00""","""0.00""","""0.00""","""0.00""","""0.00"""
"""289""","""Pot+vidre+12REF+347+ml+%28nou%2C+rosca+TO77%29""","""0.17""","""100""","""1""","""0""","""0""","""0.21""","""0""","""0.00""","""0.00""","""0.00""","""0.00""","""0.00""","""0.00""","""0.00""","""0.00""","""0.00""","""0.00""","""0.00""","""0.00""","""0.00""","""0.00""","""0.00""","""0.00"""
"""286""","""Pot+vidre+16REF+450+ml+%28nou%2C+rosca+TO77%29""","""0.2""","""100""","""1""","""0""","""0""","""0.21""","""0""","""1,261.00""","""0.20""","""0.20""","""0.00""","""0.00""","""0.00""","""0.00""","""0.21""","""0.00""","""0.21""","""0.00""","""0.00""","""0.00""","""0.00""","""0.00""","""0.00"""
"""288""","""Pot+vidre+8REF+250+ml+%28nou%2C+rosca+TO66%29""","""0.15""","""100""","""1""","""0""","""0""","""0.21""","""0""","""219.00""","""32.85""","""32.85""","""0.00""","""0.00""","""0.00""","""0.00""","""45.99""","""0.00""","""45.99""","""0.00""","""0.00""","""0.00""","""0.00""","""0.00""","""0.00"""
"""290""","""Pot+vidre+REF%3A%27Quarter%27%2C+948+ml+%28nou%2C+rosca+TO77%29""","""0.34""","""100""","""1""","""0""","""0""","""0.21""","""0""","""164.00""","""55.76""","""55.76""","""0.00""","""0.00""","""0.00""","""0.00""","""34.44""","""0.00""","""34.44""","""0.00""","""0.00""","""0.00""","""0.00""","""0.00""","""0.00"""
"""146""","""Pots+vidre+reciclats+%28400+i+500+ml%29""","""0.2""","""100""","""1""","""0""","""0""","""0.21""","""0""","""40.00""","""8.00""","""8.00""","""0.00""","""0.00""","""0.00""","""0.00""","""8.40""","""0.00""","""8.40""","""0.00""","""0.00""","""0.00""","""0.00""","""0.00""","""0.00"""
"""294""","""Rosquilles+Bunyoleres+-+matafaluga+%28360-370+gr%29""","""5.2""","""50""","""1""","""0""","""0""","""0.21""","""0""","""4.00""","""20.80""","""10.40""","""10.40""","""0.00""","""0.00""","""0.00""","""0.84""","""0.00""","""0.84""","""0.00""","""0.00""","""0.00""","""0.00""","""0.00""","""0.00"""
"""52""","""s%E8sam+BIO+-+EKO%2FSKAL+-+Bolivia+%28bosses+1+kg%29""","""4.03""","""0""","""1""","""0""","""0""","""0.21""","""0""","""18.00""","""72.54""","""0.00""","""72.54""","""0.00""","""0.00""","""0.00""","""3.78""","""0.00""","""3.78""","""0.00""","""0.00""","""0.00""","""0.00""","""0.00""","""0.00"""
"""267""","""s%E8sam+BIO+-+EKO%2FSKAL+-+Bolivia+%28sac+25+kg%29""","""3.68""","""0""","""25""","""0""","""0""","""0.21""","""0""","""50.00""","""184.00""","""0.00""","""184.00""","""0.00""","""0.00""","""0.00""","""10.50""","""0.00""","""10.50""","""0.00""","""0.00""","""0.00""","""0.00""","""0.00""","""0.00"""
"""329""","""SAB%D3+4+OLIS+amb+ARGILA+BLANCA+i+BICARBONAT+%28100-120+gr%29""","""2""","""50""","""1""","""0""","""0""","""0.21""","""0""","""7.00""","""14.00""","""7.00""","""7.00""","""0.00""","""0.00""","""0.00""","""1.47""","""0.00""","""1.47""","""0.00""","""0.00""","""0.00""","""0.00""","""0.00""","""0.00"""
"""328""","""SAB%D3+4+OLIS+amb+ARGILA+VERDA+%28100-120+gr%29""","""2""","""50""","""1""","""0""","""0""","""0.21""","""0""","""7.00""","""14.00""","""7.00""","""7.00""","""0.00""","""0.00""","""0.00""","""1.47""","""0.00""","""1.47""","""0.00""","""0.00""","""0.00""","""0.00""","""0.00""","""0.00"""
"""330""","""SAB%D3+de+CAF%C9+%28100-120+gr%29""","""2""","""50""","""1""","""0""","""0""","""0.21""","""0""","""20.00""","""40.00""","""20.00""","""20.00""","""0.00""","""0.00""","""0.00""","""4.20""","""0.00""","""4.20""","""0.00""","""0.00""","""0.00""","""0.00""","""0.00""","""0.00"""
"""323""","""SAB%D3+de+CASTELLA+%28100-120+gr%29""","""2""","""50""","""1""","""0""","""0""","""0.21""","""0""","""10.00""","""20.00""","""10.00""","""10.00""","""0.00""","""0.00""","""0.00""","""2.10""","""0.00""","""2.10""","""0.00""","""0.00""","""0.00""","""0.00""","""0.00""","""0.00"""
"""322""","""SAB%D3+de+LLIMONA+%28100-120+gr%29""","""2""","""50""","""1""","""0""","""0""","""0.21""","""0""","""10.00""","""20.00""","""10.00""","""10.00""","""0.00""","""0.00""","""0.00""","""2.10""","""0.00""","""2.10""","""0.00""","""0.00""","""0.00""","""0.00""","""0.00""","""0.00"""
"""332""","""SAB%D3+de+MENTA+%28100-120+gr%29""","""2""","""50""","""1""","""0""","""0""","""0.21""","""0""","""8.00""","""16.00""","""8.00""","""8.00""","""0.00""","""0.00""","""0.00""","""1.68""","""0.00""","""1.68""","""0.00""","""0.00""","""0.00""","""0.00""","""0.00""","""0.00"""
"""326""","""SAB%D3+MEDITERRANI+%28100-120+gr%29""","""2""","""50""","""1""","""0""","""0""","""0.21""","""0""","""10.00""","""20.00""","""10.00""","""10.00""","""0.00""","""0.00""","""0.00""","""2.10""","""0.00""","""2.10""","""0.00""","""0.00""","""0.00""","""0.00""","""0.00""","""0.00"""
"""331""","""SAB%D3+per+a+PELLS+GRASSES+%28100-120+gr%29""","""2""","""50""","""1""","""0""","""0""","""0.21""","""0""","""7.00""","""14.00""","""7.00""","""7.00""","""0.00""","""0.00""","""0.00""","""1.47""","""0.00""","""1.47""","""0.00""","""0.00""","""0.00""","""0.00""","""0.00""","""0.00"""
"""318""","""Sab%F2+l%EDquid+rentadora%2C+terra%2C+vaixelles+%285+l.%29""","""10""","""25""","""1""","""0""","""0""","""0.21""","""0""","""15.00""","""150.00""","""37.50""","""112.50""","""0.00""","""0.00""","""0.00""","""3.15""","""0.00""","""3.15""","""0.00""","""0.00""","""0.00""","""0.00""","""0.00""","""0.00"""
"""281""","""sab%F2+roba+%28en+pols%2C+oli+oliva%2C+100+gr%29""","""2""","""50""","""1""","""0""","""0""","""0.21""","""0""","""0.00""","""0.00""","""0.00""","""0.00""","""0.00""","""0.00""","""0.00""","""0.00""","""0.00""","""0.00""","""0.00""","""0.00""","""0.00""","""0.00""","""0.00""","""0.00"""
"""284""","""Sab%F3+d%27algues+i+olis+essencials""","""2""","""50""","""1""","""0""","""0""","""0.21""","""0""","""6.00""","""12.00""","""6.00""","""6.00""","""0.00""","""0.00""","""0.00""","""1.26""","""0.00""","""1.26""","""0.00""","""0.00""","""0.00""","""0.00""","""0.00""","""0.00"""
"""283""","""Sab%F3+de+llet%2C+olis+essencials+i+oli+oliva""","""2""","""50""","""1""","""0""","""0""","""0.21""","""0""","""15.00""","""30.00""","""15.00""","""15.00""","""0.00""","""0.00""","""0.00""","""3.15""","""0.00""","""3.15""","""0.00""","""0.00""","""0.00""","""0.00""","""0.00""","""0.00"""
"""282""","""Sab%F3+de+mel+i+oli+esencial+de+roman%ED+i+oli+oliva""","""2""","""50""","""1""","""0""","""0""","""0.21""","""0""","""15.00""","""30.00""","""15.00""","""15.00""","""0.00""","""0.00""","""0.00""","""3.15""","""0.00""","""3.15""","""0.00""","""0.00""","""0.00""","""0.00""","""0.00""","""0.00"""
"""62""","""sal+marina+Fina+-+Ecoebre++%281+kg%29""","""1.05""","""10""","""1""","""0""","""0""","""0.21""","""0""","""92.00""","""96.60""","""9.66""","""86.94""","""0.00""","""0.00""","""0.00""","""19.32""","""0.00""","""19.32""","""0.00""","""0.00""","""0.00""","""0.00""","""0.00""","""0.00"""
"""285""","""sal+marina+gruixuda+-+Ecoebre++%281+kg%29""","""1.08""","""10""","""1""","""0""","""0""","""0.21""","""0""","""17.00""","""18.36""","""1.84""","""16.52""","""0.00""","""0.00""","""0.00""","""3.57""","""0.00""","""3.57""","""0.00""","""0.00""","""0.00""","""0.00""","""0.00""","""0.00"""
"""90""","""sucre+integral+de+canya+daurada+-+bio+%281kg%29+""","""2.52""","""0""","""1""","""0""","""0""","""0.21""","""0""","""32.00""","""80.64""","""0.00""","""80.64""","""0.00""","""0.00""","""0.00""","""6.72""","""0.00""","""6.72""","""0.00""","""0.00""","""0.00""","""0.00""","""0.00""","""0.00"""
"""152""","""sucre+integral+de+canya+daurada+-+bio+%2825kg%29+""","""2.18""","""0""","""25""","""0""","""0""","""0.21""","""0""","""25.00""","""54.50""","""0.00""","""54.50""","""0.00""","""0.00""","""0.00""","""5.25""","""0.00""","""5.25""","""0.00""","""0.00""","""0.00""","""0.00""","""0.00""","""0.00"""
"""175""","""Tahin-Pasta+de+S%E8sam+%28250+grs%29""","""5.5""","""50""","""1""","""0""","""0""","""0.21""","""0""","""20.00""","""110.00""","""55.00""","""55.00""","""0.00""","""0.00""","""0.00""","""4.20""","""0.00""","""4.20""","""0.00""","""0.00""","""0.00""","""0.00""","""0.00""","""0.00"""
"""291""","""Tap+per+pot+de+vidre+REF%3A+TO66""","""0.05""","""100""","""1""","""0""","""0""","""0.21""","""0""","""754.00""","""37.70""","""37.70""","""0.00""","""0.00""","""0.00""","""0.00""","""158.34""","""0.00""","""158.34""","""0.00""","""0.00""","""0.00""","""0.00""","""0.00""","""0.00"""
"""287""","""Tap+per+pot+de+vidre+REF%3A+TO77""","""0.07""","""100""","""1""","""0""","""0""","""0.21""","""0""","""206.00""","""14.42""","""14.42""","""0.00""","""0.00""","""0.00""","""0.00""","""43.26""","""0.00""","""43.26""","""0.00""","""0.00""","""0.00""","""0.00""","""0.00""","""0.00"""
"""135""","""Xamp%FA+Camamilla+i+C%FArcuma+BIO%28+250+ml%29""","""7.2""","""25""","""1""","""0""","""0""","""0.21""","""0""","""2.00""","""14.40""","""3.60""","""10.80""","""0.00""","""0.00""","""0.00""","""0.42""","""0.00""","""0.42""","""0.00""","""0.00""","""0.00""","""0.00""","""0.00""","""0.00"""
"""134""","""Xamp%FA+Malva+i+Cal%E8ndula%28+250+ml%29""","""7.2""","""25""","""1""","""0""","""0""","""0.21""","""0""","""7.00""","""50.40""","""12.60""","""37.80""","""0.00""","""0.00""","""0.00""","""1.47""","""0.00""","""1.47""","""0.00""","""0.00""","""0.00""","""0.00""","""0.00""","""0.00"""
"""106""","""Xamp%FA+Ortiga+i+cua+caball""","""7.2""","""25""","""1""","""0""","""0""","""0.21""","""0""","""8.00""","""57.60""","""14.40""","""43.20""","""0.00""","""0.00""","""0.00""","""1.68""","""0.00""","""1.68""","""0.00""","""0.00""","""0.00""","""0.00""","""0.00""","""0.00"""
"""136""","""Xamp%FA+S%E0lvia+i+Roman%ED+BIO+%28+250+ml%29""","""7.2""","""25""","""1""","""0""","""0""","""0.21""","""0""","""8.00""","""57.60""","""14.40""","""43.20""","""0.00""","""0.00""","""0.00""","""1.68""","""0.00""","""1.68""","""0.00""","""0.00""","""0.00""","""0.00""","""0.00""","""0.00"""
""""""
"""""","""""","""""","""""","""""","""""","""""","""""","""""","""3244""","""6,438.26""","""2,376.10""","""4,062.17""","""0.00""","""0.00""","""0.00""","""665.68""","""0.00""","""665.68""","""0.00""","""0.00""","""0.00""","""0.00""","""0.00""","""0.00"""
"""""","""""","""""","""""","""""","""""","""""","""""","""""","""Total Transport productes Cac:""","""665.68""","""0""","""665.68"""
"""""","""""","""""","""""","""""","""""","""""","""""","""""","""Total TRANSPORT Intercanvis rebosts (0.00 kg, l...):""","""0.00""","""0.00""","""0.00"""
"""""","""""","""""","""""","""""","""""","""""","""""","""""","""Total Factura :""","""7,103.94""","""2,376.10""","""4,727.85"""
