"""Comanda Actual:""","""PB-La Torre del Vent""","""""","""""","""""","""""","""""","""""",""""""
"""Periode pre-comanda:""","""5-11-12:15-11-12"""
"""Data:""","""19-06-2014 11:31:35"""
"""id""","""producte""","""preu""","""ms""","""format""","""cost_transport_extern_kg""","""ms_ctek""","""cost_transport_intern_kg""","""ms_ctik""","""Quantitat""","""cost Unitats""","""cost Ecos""","""cost Euros""","""ctek Unitats""","""ctek Ecos""","""ctek Euros""","""ctik Unitats""","""ctik Ecos""","""ctik Euros""","""ctear Unitats""","""ctear Ecos""","""ctear Euros""","""ctiar Unitats""","""ctiar Ecos""","""ctiar Euros"""
"""98""","""oli+oliva+Arbequina+-+5l+%28Beran%E7a%29""","""23""","""5""","""1""","""0""","""0""","""0.21""","""0""","""1.00""","""23.00""","""1.15""","""21.85""","""0.00""","""0.00""","""0.00""","""0.21""","""0.00""","""0.21""","""0.00""","""0.00""","""0.00""","""0.00""","""0.00""","""0.00"""
"""290""","""Pot+vidre+REF%3A%27Quarter%27%2C+948+ml+%28nou%2C+rosca+TO77%29""","""0.34""","""100""","""1""","""0""","""0""","""0.21""","""0""","""10.00""","""3.40""","""3.40""","""0.00""","""0.00""","""0.00""","""0.00""","""2.10""","""0.00""","""2.10""","""0.00""","""0.00""","""0.00""","""0.00""","""0.00""","""0.00"""
"""90""","""sucre+integral+de+canya+daurada+-+bio+%281kg%29+""","""2.52""","""0""","""1""","""0""","""0""","""0.21""","""0""","""3.00""","""7.56""","""0.00""","""7.56""","""0.00""","""0.00""","""0.00""","""0.63""","""0.00""","""0.63""","""0.00""","""0.00""","""0.00""","""0.00""","""0.00""","""0.00"""
"""287""","""Tap+per+pot+de+vidre+REF%3A+TO77""","""0.07""","""100""","""1""","""0""","""0""","""0.21""","""0""","""10.00""","""0.70""","""0.70""","""0.00""","""0.00""","""0.00""","""0.00""","""2.10""","""0.00""","""2.10""","""0.00""","""0.00""","""0.00""","""0.00""","""0.00""","""0.00"""
""""""
"""""","""""","""""","""""","""""","""""","""""","""""","""""","""24""","""34.66""","""5.25""","""29.41""","""0.00""","""0.00""","""0.00""","""5.04""","""0.00""","""5.04""","""0.00""","""0.00""","""0.00""","""0.00""","""0.00""","""0.00"""
"""""","""""","""""","""""","""""","""""","""""","""""","""""","""Total Transport productes Cac:""","""5.04""","""0""","""5.04"""
"""""","""""","""""","""""","""""","""""","""""","""""","""""","""Total TRANSPORT Intercanvis rebosts (0.00 kg, l...):""","""0.00""","""0.00""","""0.00"""
"""""","""""","""""","""""","""""","""""","""""","""""","""""","""Total Factura :""","""39.70""","""5.25""","""34.45"""
