"""Comanda Actual:""","""Rebost Virtual Cieb""","""""","""""","""""",""""""
"""Periode pre-comanda:""","""5-11-12:15-11-12"""
"""Data:""","""10-07-2014 12:43:07"""
"""id""","""producte""","""preu""","""ms""","""format""","""pes""","""Quantitat""","""cost Unitats""","""cost Ecos""","""cost Euros"""
"""292""","""Arr%F2s+integral+ECO%2C+envasat+al+buit+%281kg%29""","""2.81""","""0""","""1""","""1.01""","""6.00""","""16.86""","""0.00""","""16.86"""
"""64""","""avellana+amb+clova++%28bossa+4+kg%29""","""3.38""","""30""","""4""","""1""","""8.00""","""27.04""","""8.11""","""18.93"""
"""154""","""caf%E8+en+gra+Rebeldia+%28+1+kg+%29+-+Chiapas""","""11.2""","""0""","""1""","""1.01""","""4.00""","""44.80""","""0.00""","""44.80"""
"""153""","""caf%E8+m%F2lt+Rebeldia+%28250+gr%29+-Chiapas""","""3""","""0""","""1""","""0.25""","""11.00""","""33.00""","""0.00""","""33.00"""
"""302""","""carquinyolis+%28320-330+gr%29""","""5.4""","""20""","""1""","""0.33""","""2.00""","""10.80""","""2.16""","""8.64"""
"""315""","""desodorant+%2875+ml%29""","""8""","""25""","""1""","""0.1""","""2.00""","""16.00""","""4.00""","""12.00"""
"""164""","""Farina integral blat egipci (kamut -1 kg)""","""1.6""","""10""","""1""","""1""","""5.00""","""8.00""","""0.80""","""7.20"""
"""278""","""Farina+Bon+Pain+%28sac+de+1+Kg%29""","""1.42""","""10""","""1""","""1""","""4.00""","""5.68""","""0.57""","""5.11"""
"""44""","""farina+xeixa+integral+%281+kg%29""","""1.58""","""10""","""1""","""1.01""","""4.00""","""6.32""","""0.63""","""5.69"""
"""28""","""gra+-+blat+egipci+%28kamut+-+1+kg%29""","""1.22""","""10""","""1""","""1.01""","""2.00""","""2.44""","""0.24""","""2.20"""
"""231""","""Llentia+%281+kg%29""","""2.84""","""15""","""1""","""1""","""2.00""","""5.68""","""0.85""","""4.83"""
"""340""","""llentia+pardina+%281+kg%29""","""2.5""","""10""","""1""","""1""","""4.00""","""10.00""","""1.00""","""9.00"""
"""101""","""mill+%281kg%29""","""1.81""","""0""","""1""","""1.01""","""4.00""","""7.24""","""0.00""","""7.24"""
"""305""","""Mix+galetes+artesanes%28330+gr%29""","""4""","""30""","""1""","""0.33""","""1.00""","""4.00""","""1.20""","""2.80"""
"""300""","""oli+hip%E8ric+%28+60+ml%29""","""3""","""100""","""1""","""0.04""","""1.00""","""3.00""","""3.00""","""0.00"""
"""98""","""oli+oliva+Arbequina+-+5l+%28Beran%E7a%29""","""23""","""5""","""1""","""5.1""","""1.00""","""23.00""","""1.15""","""21.85"""
"""235""","""p%E8sols""","""2.84""","""15""","""1""","""1""","""5.00""","""14.20""","""2.13""","""12.07"""
"""137""","""Pasta+dent%EDfrica+S%E0lvia+BIO+%28+120+ml%29""","""4""","""25""","""1""","""0.12""","""3.00""","""12.00""","""3.00""","""9.00"""
"""294""","""Rosquilles+Bunyoleres+-+matafaluga+%28360-370+gr%29""","""5.2""","""50""","""1""","""0.365""","""1.00""","""5.20""","""2.60""","""2.60"""
"""52""","""s%E8sam+BIO+-+EKO%2FSKAL+-+Bolivia+%28bosses+1+kg%29""","""4.03""","""0""","""1""","""1.01""","""4.00""","""16.12""","""0.00""","""16.12"""
"""324""","""SAB%D3+de+COCO+%28100-120+gr%29""","""2""","""50""","""1""","""0.11""","""1.00""","""2.00""","""1.00""","""1.00"""
"""318""","""Sab%F2+l%EDquid+rentadora%2C+terra%2C+vaixelles+%285+l.%29""","""10""","""25""","""1""","""5.1""","""1.00""","""10.00""","""2.50""","""7.50"""
"""62""","""sal+marina+Fina+-+Ecoebre++%281+kg%29""","""1.05""","""10""","""1""","""1.02""","""1.00""","""1.05""","""0.11""","""0.95"""
"""285""","""sal+marina+gruixuda+-+Ecoebre++%281+kg%29""","""1.08""","""10""","""1""","""1.05""","""1.00""","""1.08""","""0.11""","""0.97"""
"""90""","""sucre+integral+de+canya+daurada+-+bio+%281kg%29+""","""2.52""","""0""","""1""","""1.01""","""4.00""","""10.08""","""0.00""","""10.08"""
"""175""","""Tahin-Pasta+de+S%E8sam+%28250+grs%29""","""5""","""50""","""1""","""0.3""","""1.00""","""5.00""","""2.50""","""2.50"""
"""106""","""Xamp%FA+Ortiga+i+cua+caball""","""7.2""","""25""","""1""","""0.26""","""1.00""","""7.20""","""1.80""","""5.40"""
"""136""","""Xamp%FA+S%E0lvia+i+Roman%ED+BIO+%28+250+ml%29""","""7.2""","""25""","""1""","""0.28""","""1.00""","""7.20""","""1.80""","""5.40"""
""""""
"""""","""Total Productes""","""""","""""","""""","""""","""85""","""314.99""","""41.26""","""273.74"""
"""""","""Total Cost Transport Productes CAC:""","""""","""""","""""","""""","""""","""15.58""","""0""","""15.58"""
"""""","""Total TRANSPORT Intercanvis rebosts:""","""""","""""","""""","""""","""0.00""","""0.00""","""0.00""","""0.00"""
"""""","""Total Factura:""","""""","""""","""""","""""","""""","""330.57""","""41.26""","""289.32"""
