"""Comanda Actual:""","""Rebost de l'Hospitalet""","""""","""""","""""",""""""
"""Periode pre-comanda:""","""17-07-14:22-07-14"""
"""Data:""","""25-07-2014 05:18:46"""
"""id""","""producte""","""preu""","""ms""","""format""","""pes""","""Quantitat""","""cost Unitats""","""cost Ecos""","""cost Euros"""
"""292""","""Arr%F2s+integral+ECO%2C+envasat+al+buit+%281kg%29""","""2.81""","""0""","""1""","""1.01""","""1.00""","""2.81""","""0.00""","""2.81"""
"""127""","""Beguda+de+civada+i+garrofa+en+pols%281+kg%29""","""4.5""","""50""","""1""","""1.01""","""1.00""","""4.50""","""2.25""","""2.25"""
"""44""","""farina+xeixa+integral+%281+kg%29""","""1.264""","""10""","""1""","""1.01""","""1.00""","""1.26""","""0.13""","""1.14"""
"""101""","""mill+%281kg%29""","""1.81""","""0""","""1""","""1.01""","""1.00""","""1.81""","""0.00""","""1.81"""
""""""
"""""","""Total Productes""","""""","""""","""""","""""","""4""","""10.38""","""2.38""","""8.01"""
"""""","""Total Cost Transport Productes CAC:""","""""","""""","""""","""""","""""","""0.84""","""0""","""0.84"""
"""""","""Total TRANSPORT Intercanvis rebosts:""","""""","""""","""""","""""","""0.00""","""0.00""","""0.00""","""0.00"""
"""""","""Total Factura:""","""""","""""","""""","""""","""""","""11.22""","""2.38""","""8.85"""
