"""Comanda Actual:""","""13-CO-Escola Viva Albada""","""""","""""","""""","""""","""""","""""",""""""
"""Periode pre-comanda:""","""17-07-14:22-07-14"""
"""Data:""","""28-07-2014 09:30:03"""
"""id""","""producte""","""preu""","""ms""","""format""","""cost_transport_extern_kg""","""ms_ctek""","""cost_transport_intern_kg""","""ms_ctik""","""Quantitat""","""cost Unitats""","""cost Ecos""","""cost Euros""","""ctek Unitats""","""ctek Ecos""","""ctek Euros""","""ctik Unitats""","""ctik Ecos""","""ctik Euros""","""ctear Unitats""","""ctear Ecos""","""ctear Euros""","""ctiar Unitats""","""ctiar Ecos""","""ctiar Euros"""
"""164""","""Farina integral blat egipci (kamut -1 kg)""","""1.28""","""10""","""1""","""0""","""0""","""0.21""","""0""","""15.00""","""19.20""","""1.92""","""17.28""","""0.00""","""0.00""","""0.00""","""3.15""","""0.00""","""3.15""","""0.00""","""0.00""","""0.00""","""0.00""","""0.00""","""0.00"""
"""290""","""Pot+vidre+REF%3A%27Quarter%27%2C+948+ml+%28nou%2C+rosca+TO77%29""","""0.34""","""100""","""1""","""0""","""0""","""0.21""","""0""","""50.00""","""17.00""","""17.00""","""0.00""","""0.00""","""0.00""","""0.00""","""10.50""","""0.00""","""10.50""","""0.00""","""0.00""","""0.00""","""0.00""","""0.00""","""0.00"""
"""287""","""Tap+per+pot+de+vidre+REF%3A+TO77""","""0.07""","""100""","""1""","""0""","""0""","""0.21""","""0""","""50.00""","""3.50""","""3.50""","""0.00""","""0.00""","""0.00""","""0.00""","""10.50""","""0.00""","""10.50""","""0.00""","""0.00""","""0.00""","""0.00""","""0.00""","""0.00"""
""""""
"""""","""""","""""","""""","""""","""""","""""","""""","""""","""115""","""39.70""","""22.42""","""17.28""","""0.00""","""0.00""","""0.00""","""24.15""","""0.00""","""24.15""","""0.00""","""0.00""","""0.00""","""0.00""","""0.00""","""0.00"""
"""""","""""","""""","""""","""""","""""","""""","""""","""""","""Total Transport productes Cac:""","""24.15""","""0""","""24.15"""
"""""","""""","""""","""""","""""","""""","""""","""""","""""","""Total TRANSPORT Intercanvis rebosts (0.00 kg, l...):""","""0.00""","""0.00""","""0.00"""
"""""","""""","""""","""""","""""","""""","""""","""""","""""","""Total Factura :""","""63.85""","""22.42""","""41.43"""
