"""Comanda Actual:""","""Rebost de Lleida""","""""","""""","""""",""""""
"""Periode pre-comanda:""","""5-11-12:15-11-12"""
"""Data:""","""17-04-2014 10:05:30"""
"""id""","""producte""","""preu""","""ms""","""format""","""pes""","""Quantitat""","""cost Unitats""","""cost Ecos""","""cost Euros"""
""""""
"""""","""Total Productes""","""""","""""","""""","""""","""0""","""0""","""0""","""0"""
"""""","""Total Cost Transport Productes CAC:""","""""","""""","""""","""""","""""","""0""","""0""","""0"""
"""""","""Total TRANSPORT Intercanvis rebosts:""","""""","""""","""""","""""","""0.00""","""0.00""","""0.00""","""0.00"""
"""""","""Total Factura:""","""""","""""","""""","""""","""""","""0.00""","""0.00""","""0.00"""
