"""Comanda Actual:""","""PB-ARTDUSOLEIL""","""""","""""","""""","""""","""""","""""",""""""
"""Periode pre-comanda:""","""17-07-14:22-07-14"""
"""Data:""","""24-07-2014 10:39:04"""
"""id""","""producte""","""preu""","""ms""","""format""","""cost_transport_extern_kg""","""ms_ctek""","""cost_transport_intern_kg""","""ms_ctik""","""Quantitat""","""cost Unitats""","""cost Ecos""","""cost Euros""","""ctek Unitats""","""ctek Ecos""","""ctek Euros""","""ctik Unitats""","""ctik Ecos""","""ctik Euros""","""ctear Unitats""","""ctear Ecos""","""ctear Euros""","""ctiar Unitats""","""ctiar Ecos""","""ctiar Euros"""
"""292""","""Arr%F2s+integral+ECO%2C+envasat+al+buit+%281kg%29""","""2.81""","""0""","""1""","""0""","""0""","""0.21""","""0""","""5.00""","""14.05""","""0.00""","""14.05""","""0.00""","""0.00""","""0.00""","""1.05""","""0.00""","""1.05""","""0.00""","""0.00""","""0.00""","""0.00""","""0.00""","""0.00"""
"""64""","""avellana+amb+clova++%28bossa+4+kg%29""","""3.38""","""30""","""4""","""0""","""0""","""0.21""","""0""","""4.00""","""13.52""","""4.06""","""9.46""","""0.00""","""0.00""","""0.00""","""0.84""","""0.00""","""0.84""","""0.00""","""0.00""","""0.00""","""0.00""","""0.00""","""0.00"""
"""154""","""caf%E8+en+gra+Rebeldia+%28+1+kg+%29+-+Chiapas""","""11.2""","""0""","""1""","""0""","""0""","""0.21""","""0""","""3.00""","""33.60""","""0.00""","""33.60""","""0.00""","""0.00""","""0.00""","""0.63""","""0.00""","""0.63""","""0.00""","""0.00""","""0.00""","""0.00""","""0.00""","""0.00"""
"""82""","""gra+-+barreja+per+gallines+%2825+kg%29""","""0.4""","""10""","""25""","""0""","""0""","""0.21""","""0""","""25.00""","""10.00""","""1.00""","""9.00""","""0.00""","""0.00""","""0.00""","""5.25""","""0.00""","""5.25""","""0.00""","""0.00""","""0.00""","""0.00""","""0.00""","""0.00"""
"""6""","""gra+-+Xeixa+%2825+kg%29""","""0.6""","""10""","""25""","""0""","""0""","""0.21""","""0""","""25.00""","""15.00""","""1.50""","""13.50""","""0.00""","""0.00""","""0.00""","""5.25""","""0.00""","""5.25""","""0.00""","""0.00""","""0.00""","""0.00""","""0.00""","""0.00"""
"""340""","""llentia+pardina+%281+kg%29""","""2.5""","""10""","""1""","""0""","""0""","""0.21""","""0""","""3.00""","""7.50""","""0.75""","""6.75""","""0.00""","""0.00""","""0.00""","""0.63""","""0.00""","""0.63""","""0.00""","""0.00""","""0.00""","""0.00""","""0.00""","""0.00"""
"""88""","""oli+de+s%E8sam+%285+l.%29""","""34.76""","""0""","""1""","""0""","""0""","""0.21""","""0""","""1.00""","""34.76""","""0.00""","""34.76""","""0.00""","""0.00""","""0.00""","""0.21""","""0.00""","""0.21""","""0.00""","""0.00""","""0.00""","""0.00""","""0.00""","""0.00"""
"""52""","""s%E8sam+BIO+-+EKO%2FSKAL+-+Bolivia+%28bosses+1+kg%29""","""4.03""","""0""","""1""","""0""","""0""","""0.21""","""0""","""3.00""","""12.09""","""0.00""","""12.09""","""0.00""","""0.00""","""0.00""","""0.63""","""0.00""","""0.63""","""0.00""","""0.00""","""0.00""","""0.00""","""0.00""","""0.00"""
"""318""","""Sab%F2+l%EDquid+rentadora%2C+terra%2C+vaixelles+%285+l.%29""","""10""","""25""","""1""","""0""","""0""","""0.21""","""0""","""1.00""","""10.00""","""2.50""","""7.50""","""0.00""","""0.00""","""0.00""","""0.21""","""0.00""","""0.21""","""0.00""","""0.00""","""0.00""","""0.00""","""0.00""","""0.00"""
"""62""","""sal+marina+Fina+-+Ecoebre++%281+kg%29""","""1.05""","""10""","""1""","""0""","""0""","""0.21""","""0""","""3.00""","""3.15""","""0.32""","""2.84""","""0.00""","""0.00""","""0.00""","""0.63""","""0.00""","""0.63""","""0.00""","""0.00""","""0.00""","""0.00""","""0.00""","""0.00"""
"""135""","""Xamp%FA+Camamilla+i+C%FArcuma+BIO%28+250+ml%29""","""7.2""","""25""","""1""","""0""","""0""","""0.21""","""0""","""1.00""","""7.20""","""1.80""","""5.40""","""0.00""","""0.00""","""0.00""","""0.21""","""0.00""","""0.21""","""0.00""","""0.00""","""0.00""","""0.00""","""0.00""","""0.00"""
""""""
"""""","""""","""""","""""","""""","""""","""""","""""","""""","""74""","""160.87""","""11.93""","""148.95""","""0.00""","""0.00""","""0.00""","""15.54""","""0.00""","""15.54""","""0.00""","""0.00""","""0.00""","""0.00""","""0.00""","""0.00"""
"""""","""""","""""","""""","""""","""""","""""","""""","""""","""Total Transport productes Cac:""","""15.54""","""0""","""15.54"""
"""""","""""","""""","""""","""""","""""","""""","""""","""""","""Total TRANSPORT Intercanvis rebosts (0.00 kg, l...):""","""0.00""","""0.00""","""0.00"""
"""""","""""","""""","""""","""""","""""","""""","""""","""""","""Total Factura :""","""176.41""","""11.93""","""164.49"""
