"21/04/2016 0101:0404"
0,1,2,3,4,5,6,7,8,9,10,11
157,0,Confitura+de+cabell+d%27%E0ngel,0,113-Rebost+La+Pla%E7a,alimentació,melmelada,,pot+450ml,1,0.6,0.45,4.5,100,0,0,0,%3Cb%3ELes+Silvestres%3C%2Fb%3E+-+CONFITURA+DE+CABELL+D%27%C0NGEL%3Cbr%3E%0D%0A%2A%2Adol%E7a+i+llaminera...per+untar+torrades+o+per+farcir+pastissos%2A%2A%3Cbr%3E%0D%0A%3Cu%3EIngredients%3C%2Fu%3E%3Cbr%3E%0D%0A.+carbasses+de+cabell+d%27%E0ngel+-+horta+ecol%F2gica+de+Vista+Alegre%3Cbr%3E%0D%0A.+sucre+daurat+Biospirit+%28Cac%29%3Cbr%3E%0D%0A.+canyella+en+branca+%28cinnamomum+verum%29%3Cbr%3E%0D%0A.+ralladura+de+llimona+-+Llepolies+de+Mesada%3Cbr%3E%0D%0AFeta+al+gener+2016%3Cbr%3E%0D%0ACaduca+en+1+any+-+Oberta+guardeu-la+a+la+nevera%3Cbr%3E%0D%0A%0D%0A+-LES+SILVESTRES+som+la+Kirsten+i+la+Sabina.+Elaborem+suc+de+poma%2C+salses+i+conserves+buscant+sabors+i+combinacions+sorprenents+i+aprofitant+l%27abund%E0ncia+de+la+natura.+Produ%EFm+pels+grups+de+consum+garrotxins+i+per+la+CAC.+Som+un+projecte+vinculat+a+l%27EcoxarxaGarrotxa+que+ens+avala+amb+el+seu+Aval+de+Confian%E7a.%0D%0A,,,0,0,0,0,"{p:transferirFitxa;llistaOrigen: CAC; us:19;;dt:10/04/2016 15:45:47;}",11,,1
156,0,Anous,0,113-Rebost+La+Pla%E7a,alimentació,"fruit sec",,bossa+500gr,1,0.5,0.5,2.2,100,0,0,0,%3Cb%3EAdri%E0+Margarit%3C%2Fb%3E+-+ANOUS+amb+clova+ECOL%D2GIQUES+GARROTXA+%28varietat+aut%F2ctona%29%3Cbr%3E%0D%0A%2A%2Apetites+i+concentrades%2C+d%27alta+qualitat%2A%2A%3Cbr%3E%3Cbr%3E%0D%0AOrigen%3A+marges+boscans+del+Mas+Bernades+de+la+Vall+del+Llierca.%3Cbr%3E%0D%0ACollita+de+la+tardor+2015%3Cbr%3E%0D%0ACollides+a+m%E0+i+assecades+al+sol.%3Cbr%3E%3Cbr%3E%0D%0AAdri%E0+Margarit%2C+s%F3c+agr%F2nom%2C+pag%E8s+i+recol%B7lector.+Produeixo+horta+ecol%F2gica%2C+ous+ecol%F2gics+de+gallina%2C+i+fruites%2C+per+l%27Ecoxarxa+Garrotxa++i+pels+mercats+i+grups+de+consum+locals.+Avui+ofereixo+aquest+excedent+d%27anous+per+la+Cac.%3Cbr%3E%0D%0A+Salut+i+Bons+Aliments+%21%21%0D%0A%0D%0A%0D%0A%0D%0A%0D%0A,,,0,0,0,0,"{p:transferirFitxa;llistaOrigen: CAC; us:19;;dt:10/04/2016 15:45:47;}",11,,1
155,0,Fajol+en+gra+-trigo+sarraceno-5kg,0,113-Rebost+La+Pla%E7a,alimentació,gra,,sac+5+kg,1,5,5,20,100,0,0,0,%3Cb%3ECan+Ventura%3C%2Fb%3E+-+FAJOL+EN+GRA+5kg+-+gra+sencer+integral%3Cbr%3E%0D%0A%0D%0A+%2A%2A%2AFagopyrum+esculentum+-+trigo+sarraceno+-+alforfon%2A%2A%2A%3Cbr%3E%0D%0A%3Cu%3ECom+es+menja%3A%3C%2Fu%3E%3Cbr%3E%0D%0A.+molinat%2C+s%27en+fa+farina+per+creps%2C+sopes%2C+cremes%2C+pastissos%2C+farinetes%3Cbr%3E%0D%0A.+torrat+lleugerament%2C+salta+la+pell+i+es+pot+coure+com+l%27arros%3Cbr%3E%0D%0A.+torrat+mes+estona+salten+com+crispetes+%28palomitas%29%2C+amb+sal%3Cbr%3E%0D%0A.+germinat%2C+a+l%27amanida%2C+o+truita+de+germinats%2C+o+saltejat+amb+verdures%3Cbr%3E%0D%0A%3Cbr%3E%0D%0ACont%E9+les+prote%EFnes+de+m%E9s+valor+biol%F2gic+del+regne+vegetal%2C+cosa+que+el+fa+popular+en+la+cuina+vegetariana+i%2C+com+que+no+t%E9+gens+de+gluten%2C+tamb%E9+es+fa+servir+en+aliments+per+a+cel%EDacs.+Tradicionalment%2C+s%27ha+usat+per+a+fer+pa+i+en+preparacions+humils%2C+com+ara+les+farinetes+%28a+La+Garrotxa%2C+Vall+d%27Aran%2C+etc.%29+o+les+tort%FAs+%28a+Occit%E0nia%29.+Actualment%2C+a+m%E9s+d%27aqz7vbkwz8ygwjuestes+receptes+antigues%2C+es+destina+a+farines+per+fer+galetes%2C+crespells+i+pans+especials.+A+Fran%E7a+la+farina+de+fajol+tamb%E9+es+fa+servir+per+fer+creps+%28cr%EApe%29+amb+acompanyaments+salats.+Essent+un+plat+t%EDpic+de+la+Bretanya.+En+altres+parts+del+m%F3n%2C+com+ara+Ucra%EFna%2C+Bielor%FAssia%2C+Pol%F2nia%2C+R%FAssia+i+els+pa%EFsos+b%E0ltics%2C+aquest+gra+sempre+ha+tingut+una+gran+popularitat+i+%E9s+apreciat+per+al+consum+hum%E0%2C+ja+sigui+cuinat+com+a+gra+sencer+%28torrat+i+despr%E9s+bullit%29+ja+sigui+per+a+fer+pa.%3Cbr%3E%0D%0A+https%3A%2F%2Fca.wikipedia.org%2Fwiki%2FFajol%3Cbr%3E%0D%0A%0D%0A+-CAN+VENTURA-++S%F3c+en+Pep+Arcas+de+Can+Ventura%2C+finca+agroecol%F2gica++a+la+Vall+de+Sant+Mart%ED+%28Santa+Pau%2C+Garrotxa%29%2C+dedicada+al+cultiu%2C+d%27ordi%2C+ll%FApol+silvestre+i+fajol.+La+meva+activitat+principal+%E9s+l%27Obrador+Cerveser%2C+on+hi+produeixo+les+cerveses+artesanes+Ales+de+Santa+Pau.+S%F3c+soci+autoocupat+de+la+Cooperativa+Integral+Catalana+i+membre+de+l%27Ecoxarxa+Garrotxa.+Proveeixo+als+grups+de+consum+i+establiments+locals%2C+i+ara%2C+a+la+Cac%2C+a+trav%E9s+de+l%27agrupaci%F3+de+productors+LaPla%E7aProductora+de+l%27ExGarrotxa.+%3Cbr%3EGR%C0CIES+I+BON+PROFIT+%21%21%3Cbr%3E%0D%0A,,,0,0,0,0,"{p:transferirFitxa;llistaOrigen: CAC; us:19;;dt:10/04/2016 15:45:47;}",11,,1
154,0,Carbassa+agredol%E7a+amb+gingebre,0,113-Rebost+La+Pla%E7a,alimentació,snack,,pot+450+ml,1,0.5,0.45,4,100,0,0,0,%3Cb%3ELes+Silvestres%3C%2Fb%3E+-+CARBASSA+AGREDOL%C7A+AMB+GINGEBRE%3Cbr%3E%0D%0A%2A%2A%2Acarbassa+tallada+a+daus+per+menjar+com+a+aperitiu+o+entrant+fred%2A%2A%2A%3Cbr%3E%0D%0A%3Cu%3EIngredients%3C%2Fu%3E%3Cbr%3E%0D%0A.+Carbassa+Muscat+-+horta+ecol%F2gica+La+Sa%F3+%28Vall+de+Bianya%29%3Cbr%3E%0D%0A.+Vinagre+de+Vi+Macabeu+-+Cal+Sis+Dits+CCPAE+%28Vilob%ED+del+Pened%E8s%29%3Cbr%3E%0D%0A.+Sucre+daurat+ecol%F2gic+.+Biospirit+%28Cac%29%3Cbr%3E%0D%0A.+Gingebre+ecol%F2gic+%28Biosupermercats+Nana%2C+Olot%29%3Cbr%3E%0D%0A%3Cu%3EConservaci%F3%3C%2Fu%3E%3Cbr%3E%0D%0AEsterilitzat+al+bany+maria.%3Cbr%3E%0D%0AUn+cop+obert+s%27ha+de+guardar+a+la+nevera+i+consumir+en+uns+dies.%3Cbr%3E%0D%0AElaborat%3A+febrer+2016%3Cbr%3E%0D%0ACaducitat%3A+setembre+2016%3Cbr%3E%3Cbr%3E%0D%0A%0D%0A+-LES+SILVESTRES+som+la+Kirsten+i+la+Sabina.+Elaborem+suc+de+poma%2C+salses+i+conserves+buscant+sabors+i+combinacions+sorprenents+i+aprofitant+l%27abund%E0ncia+de+la+natura.+Produ%EFm+pels+grups+de+consum+garrotxins+i+per+la+CAC.+Som+un+projecte+vinculat+a+l%27EcoxarxaGarrotxa+que+ens+avala+amb+el+seu+Aval+de+Confian%E7a.%0D%0A,,,0,0,0,0,"{p:transferirFitxa;llistaOrigen: CAC; us:19;;dt:10/04/2016 15:45:47;}",11,,1
153,0,Farina+de+fajol+%282%2C5kg%29,0,113-Rebost+La+Pla%E7a,alimentació,farina,,paquet+2%2C5kg,1,2.5,2.5,15,100,0,0,0,%3Cb%3ECan+Ventura%3C%2Fb%3E+-+FARINA+DE+FAJOL+integral%3Cbr%3E%0D%0A%2A%2A%2AFagopyrum+esculentum+-+trigo+sarraceno+-+alforfon%2A%2A%2A%3Cbr%3E%0D%0APREU%3A+6+troks+el+kilo%3Cbr%3E%0D%0AFORMAT%3A+paquet+de+2.50+kilos%3Cbr%3E%0D%0AMolinat+dos+dies+abans+de+la+distribuci%F3%2C+per+tal+que+sigui+farina+ben+fresca.%3Cbr%3E%0D%0AGuardeu-la+en+lloc+ben+sec+i+ben+tancat%2C+i+consumiu-la+en+pocs+mesos.%3Cbr%3E%3Cbr%3E%0D%0A%0D%0A%0D%0A-CAN+VENTURA-++S%F3c+en+Pep+Arcas+de+Can+Ventura%2C+finca+agroecol%F2gica++a+la+Vall+de+Sant+Mart%ED+%28Santa+Pau%2C+Garrotxa%29%2C+dedicada+al+cultiu%2C+d%27ordi%2C+ll%FApol+silvestre+i+fajol.+La+meva+activitat+principal+%E9s+l%27Obrador+Cerveser%2C+on+hi+produeixo+les+cerveses+artesanes+Ales+de+Santa+Pau.+S%F3c+soci+autoocupat+de+la+Cooperativa+Integral+Catalana+i+membre+de+l%27Ecoxarxa+Garrotxa.+Proveeixo+als+grups+de+consum+i+establiments+locals%2C+i+ara%2C+a+la+Cac%2C+a+trav%E9s+de+l%27agrupaci%F3+de+productors+LaPla%E7aProductora+de+l%27ExGarrotxa.+%3Cbr%3EGR%C0CIES+I+BON+PROFIT+%21%21%3Cbr%3E,,,0,0,0,0,"{p:transferirFitxa;llistaOrigen: CAC; us:19;;dt:10/04/2016 15:45:47;}",11,,1
152,0,Col-i-flor+encurtida,0,113-Rebost+La+Pla%E7a,alimentació,altres,,pot+450ml,1,0.6,0.45,4,100,0,0,0,%3Cb%3ELes+Silvestres%3C%2Fb%3E+-+COL-I-FLOR+ENCURTIDA+EN+VINAGRE+ESPECIAT%3Cbr%3E%0D%0A%2A%2A%2Aconserva+de+verdures.+Talleu+a+petits+bocins+i+afegiu+a+les+amanides%2A%2A%2A%3Cbr%3E%0D%0A%3Cu%3EIngredients%3C%2Fu%3E%3Cbr%3E%0D%0A.+col-i-flor+blanca+-+horta+ecol%F2gica+Can+Gust%ED+CCPAE+%28Sadernes%29%3Cbr%3E%0D%0A.+vinagre+ecol%F2gic+de+vi+Macabeu+-+Cal+Sis+Dits+%28Vilob%ED+del+Pened%E8s%29%3Cbr%3E%0D%0A.+ginebr%F3+i+cum%ED+alemany+-+Biosupermercats+Nana+Olot%3Cbr%3E%0D%0A.+sal+ecol%F2gica+d%27Almassora+%28Cac%29%3Cbr%3E%0D%0A%3Cu%3EConservaci%F3%3C%2Fu%3E%3Cbr%3E%0D%0A.Esterilitzat+al+bany+maria%3Cbr%3E%0D%0A.Produ%EFt+al+mar%E7+2016%3Cbr%3E%0D%0A.Caducitat+m%EDnima+6+mesos%3Cbr%3E%0D%0A.Un+cop+obert+guardeu-lo+a+la+nevera%3Cbr%3E%3Cbr%3E%0D%0A%0D%0A%2ALES+SILVESTRES+som+la+Kirsten+i+la+Sabina.+Elaborem+suc+de+poma%2C+confitures+i+verdures+encurtides%2C+buscant+sabors+i+combinacions+sorprenents+i+aprofitant+l%27abund%E0ncia+de+la+natura.+Produ%EFm+pels+grups+de+consum+garrotxins+i+per+la+CAC.+Som+un+projecte+vinculat+a+l%27EcoxarxaGarrotxa+que+ens+avala+amb+el+seu+Aval+de+Confian%E7a.,,,0,0,0,0,"{p:transferirFitxa;llistaOrigen: CAC; us:19;;dt:10/04/2016 15:45:46;}",11,,1
151,0,"plantilla-10/04/16 15:18:51-2",0,89-LES+SILVESTRES,alimentació,altres,,"1 ut",1,1,1,1,50,0,0,0,,,,0,0,0,0,"{p:novaPlantilla(2); us:19;dt:10/04/2016 15:18:51;}",11,,1
150,0,"plantilla-10/04/16 15:18:51-1",0,89-LES+SILVESTRES,alimentació,altres,,"1 ut",1,1,1,1,50,0,0,0,,,,0,0,0,0,"{p:novaPlantilla(1); us:19;dt:10/04/2016 15:18:51;}",11,,1
149,0,"plantilla-10/04/16 15:18:51-0",0,89-LES+SILVESTRES,alimentació,altres,,"1 ut",1,1,1,1,50,0,0,0,,,,0,0,0,0,"{p:novaPlantilla(0); us:19;dt:10/04/2016 15:18:51;}",11,,1
148,0,cistelles+mitjanes,1,131-AGROMARGARIT,alimentació,altres,,1+ut,1,10,10,10,50,10,0,9,,,,0,0,0,0,"{p:historial;us:2;producte:plantilla-03/04/16 14:02:10-0->cistelles+mitjanes;dt:21/04/2016 12:14:12;}{p:historial;us:2;actiu:0->1;dt:21/04/2016 12:14:12;}{p:historial;us:2;unitat_facturacio:1 ut->1+ut;dt:21/04/2016 12:14:12;}{p:historial;us:2;pes:1->10;dt:21/04/2016 12:14:12;}{p:historial;us:2;volum:1->10;dt:21/04/2016 12:14:12;}{p:historial;us:2;preu:1->10;dt:21/04/2016 12:14:12;}{p:historial;us:2;estoc_previst:0->10;dt:21/04/2016 12:14:12;}{p:historial;us:2;estoc_disponible:0->10;dt:21/04/2016 12:14:12;}{p:novaPlantilla(0); us:19;dt:03/04/2016 14:02:10;}",11,,1
143,0,Anous+amb+clova+-+1+kilo,1,113-RP-La%2BPla%25E7a%2BProductora,alimentació,"fruit sec",,bossa+1+kilo,1,1,1,4.4,100,10,0,8,%3Cb%3EAdri%E0+Margarit%3C%2Fb%3E+-+ANOUS+amb+clova++1+kilo+ECOL%D2GIQUES+GARROTXA+%28varietat+aut%F2ctona%29%3Cbr%3E%0D%0A%2A%2Apetites+i+concentrades%2C+d%27alta+qualitat%2A%2A%3Cbr%3E%3Cbr%3E%0D%0AOrigen%3A+marges+boscans+del+Mas+Bernades+de+la+Vall+del+Llierca.%3Cbr%3E%0D%0ACollita+de+la+tardor+2015%3Cbr%3E%0D%0ACollides+a+m%E0+i+assecades+al+sol.%3Cbr%3E%3Cbr%3E%0D%0AAdri%E0+Margarit%2C+s%F3c+agr%F2nom%2C+pag%E8s+i+recol%B7lector.+Produeixo+horta+ecol%F2gica%2C+ous+ecol%F2gics+de+gallina%2C+i+fruites%2C+per+l%27Ecoxarxa+Garrotxa++i+pels+mercats+i+grups+de+consum+locals.+Avui+ofereixo+aquest+excedent+d%27anous+per+la+Cac.%3Cbr%3E%0D%0A+Salut+i+Bons+Aliments+%21%21,,,0,0,0,0,"{p:historial;us:2;actiu:0->1;dt:21/04/2016 12:13:30;}{p:historial;us:2;productor:113-Rebost+La+Pla%E7a->113-RP-La%2BPla%25E7a%2BProductora;dt:21/04/2016 12:13:30;}{p:historial;us:2;estoc_previst:0->10;dt:21/04/2016 12:13:30;}{p:historial;us:2;estoc_disponible:0->10;dt:21/04/2016 12:13:30;}{p:transferirFitxa;llistaOrigen: CAC; us:19;;dt:27/03/2016 16:37:07;}",11,,0
142,31.23,suc+de+poma,1,89-LES+SILVESTRES,alimentació,beguda,,1+litre,1,1,1,3,100,50,0,48,,,,0,0,0,0,"{p:historial;us:282;actiu:0->1;dt:03/04/2016 14:28:36;}{p:historial;us:282;producte:plantilla-27/03/16 13:47:57-0->suc+de+poma;dt:03/04/2016 14:27:40;}{p:historial;us:282;categoria10:altres->beguda;dt:03/04/2016 14:27:40;}{p:historial;us:282;unitat_facturacio:1 ut->1+litre;dt:03/04/2016 14:27:40;}{p:historial;us:282;preu:1->3;dt:03/04/2016 14:27:40;}{p:historial;us:282;ms:50->100;dt:03/04/2016 14:27:40;}{p:historial;us:282;estoc_previst:0->50;dt:03/04/2016 14:27:40;}{p:historial;us:282;estoc_disponible:0->50;dt:03/04/2016 14:27:40;}{p:novaPlantilla(0); us:19;dt:27/03/2016 13:47:57;}",11,,0
