"""Comanda Actual:""","""CIC-Oficina Habitatge""","""""","""""","""""","""""","""""","""""",""""""
"""Periode pre-comanda:""","""5-11-12:15-11-12"""
"""Data:""","""25-06-2014 07:00:27"""
"""id""","""producte""","""preu""","""ms""","""format""","""cost_transport_extern_kg""","""ms_ctek""","""cost_transport_intern_kg""","""ms_ctik""","""Quantitat""","""cost Unitats""","""cost Ecos""","""cost Euros""","""ctek Unitats""","""ctek Ecos""","""ctek Euros""","""ctik Unitats""","""ctik Ecos""","""ctik Euros""","""ctear Unitats""","""ctear Ecos""","""ctear Euros""","""ctiar Unitats""","""ctiar Ecos""","""ctiar Euros"""
"""292""","""Arr%F2s+integral+ECO%2C+envasat+al+buit+%281kg%29""","""2.81""","""0""","""1""","""0""","""0""","""0.21""","""0""","""4.00""","""11.24""","""0.00""","""11.24""","""0.00""","""0.00""","""0.00""","""0.84""","""0.00""","""0.84""","""0.00""","""0.00""","""0.00""","""0.00""","""0.00""","""0.00"""
"""153""","""caf%E8+m%F2lt+Rebeldia+%28250+gr%29+-Chiapas""","""3""","""0""","""1""","""0""","""0""","""0.21""","""0""","""3.00""","""9.00""","""0.00""","""9.00""","""0.00""","""0.00""","""0.00""","""0.63""","""0.00""","""0.63""","""0.00""","""0.00""","""0.00""","""0.00""","""0.00""","""0.00"""
"""310""","""Codonyat+%28300+gr+-+al+buit%29""","""4.5""","""50""","""1""","""0""","""0""","""0.21""","""0""","""2.00""","""9.00""","""4.50""","""4.50""","""0.00""","""0.00""","""0.00""","""0.42""","""0.00""","""0.42""","""0.00""","""0.00""","""0.00""","""0.00""","""0.00""","""0.00"""
"""164""","""Farina integral blat egipci (kamut -1 kg)""","""1.6""","""10""","""1""","""0""","""0""","""0.21""","""0""","""1.00""","""1.60""","""0.16""","""1.44""","""0.00""","""0.00""","""0.00""","""0.21""","""0.00""","""0.21""","""0.00""","""0.00""","""0.00""","""0.00""","""0.00""","""0.00"""
"""317""","""Galetes+salades+%28100+gr%29""","""2.9""","""100""","""1""","""0""","""0""","""0.21""","""0""","""1.00""","""2.90""","""2.90""","""0.00""","""0.00""","""0.00""","""0.00""","""0.21""","""0.00""","""0.21""","""0.00""","""0.00""","""0.00""","""0.00""","""0.00""","""0.00"""
"""338""","""IRENE%92S+%96galetes+de+poma%2Cametlla+i+melassa+%28440-450+gr%29""","""5.4""","""50""","""1""","""0""","""0""","""0.21""","""0""","""1.00""","""5.40""","""2.70""","""2.70""","""0.00""","""0.00""","""0.00""","""0.21""","""0.00""","""0.21""","""0.00""","""0.00""","""0.00""","""0.00""","""0.00""","""0.00"""
"""340""","""llentia+pardina+%281+kg%29""","""2.5""","""10""","""1""","""0""","""0""","""0.21""","""0""","""4.00""","""10.00""","""1.00""","""9.00""","""0.00""","""0.00""","""0.00""","""0.84""","""0.00""","""0.84""","""0.00""","""0.00""","""0.00""","""0.00""","""0.00""","""0.00"""
"""299""","""Melmelada+mandarina%28+480+ml%29++""","""2.6""","""100""","""1""","""0""","""0""","""0.21""","""0""","""1.00""","""2.60""","""2.60""","""0.00""","""0.00""","""0.00""","""0.00""","""0.21""","""0.00""","""0.21""","""0.00""","""0.00""","""0.00""","""0.00""","""0.00""","""0.00"""
"""298""","""Melmelada+mandarina+doble+llimona+%28480+ml%29++""","""2.6""","""100""","""1""","""0""","""0""","""0.21""","""0""","""1.00""","""2.60""","""2.60""","""0.00""","""0.00""","""0.00""","""0.00""","""0.21""","""0.00""","""0.21""","""0.00""","""0.00""","""0.00""","""0.00""","""0.00""","""0.00"""
"""101""","""mill+%281kg%29""","""1.81""","""0""","""1""","""0""","""0""","""0.21""","""0""","""2.00""","""3.62""","""0.00""","""3.62""","""0.00""","""0.00""","""0.00""","""0.42""","""0.00""","""0.42""","""0.00""","""0.00""","""0.00""","""0.00""","""0.00""","""0.00"""
"""233""","""oli+de+rosa+mosqueta""","""15""","""25""","""1""","""0""","""0""","""0.21""","""0""","""2.00""","""30.00""","""7.50""","""22.50""","""0.00""","""0.00""","""0.00""","""0.42""","""0.00""","""0.42""","""0.00""","""0.00""","""0.00""","""0.00""","""0.00""","""0.00"""
"""235""","""p%E8sols""","""2.84""","""15""","""1""","""0""","""0""","""0.21""","""0""","""3.00""","""8.52""","""1.28""","""7.24""","""0.00""","""0.00""","""0.00""","""0.63""","""0.00""","""0.63""","""0.00""","""0.00""","""0.00""","""0.00""","""0.00""","""0.00"""
"""294""","""Rosquilles+Bunyoleres+-+matafaluga+%28360-370+gr%29""","""5.2""","""50""","""1""","""0""","""0""","""0.21""","""0""","""1.00""","""5.20""","""2.60""","""2.60""","""0.00""","""0.00""","""0.00""","""0.21""","""0.00""","""0.21""","""0.00""","""0.00""","""0.00""","""0.00""","""0.00""","""0.00"""
"""318""","""Sab%F2+l%EDquid+rentadora%2C+terra%2C+vaixelles+%285+l.%29""","""10""","""25""","""1""","""0""","""0""","""0.21""","""0""","""1.00""","""10.00""","""2.50""","""7.50""","""0.00""","""0.00""","""0.00""","""0.21""","""0.00""","""0.21""","""0.00""","""0.00""","""0.00""","""0.00""","""0.00""","""0.00"""
"""284""","""Sab%F3+d%27algues+i+olis+essencials""","""2""","""50""","""1""","""0""","""0""","""0.21""","""0""","""1.00""","""2.00""","""1.00""","""1.00""","""0.00""","""0.00""","""0.00""","""0.21""","""0.00""","""0.21""","""0.00""","""0.00""","""0.00""","""0.00""","""0.00""","""0.00"""
"""175""","""Tahin-Pasta+de+S%E8sam+%28250+grs%29""","""5""","""50""","""1""","""0""","""0""","""0.21""","""0""","""2.00""","""10.00""","""5.00""","""5.00""","""0.00""","""0.00""","""0.00""","""0.42""","""0.00""","""0.42""","""0.00""","""0.00""","""0.00""","""0.00""","""0.00""","""0.00"""
"""134""","""Xamp%FA+Malva+i+Cal%E8ndula%28+250+ml%29""","""7.2""","""25""","""1""","""0""","""0""","""0.21""","""0""","""1.00""","""7.20""","""1.80""","""5.40""","""0.00""","""0.00""","""0.00""","""0.21""","""0.00""","""0.21""","""0.00""","""0.00""","""0.00""","""0.00""","""0.00""","""0.00"""
"""106""","""Xamp%FA+Ortiga+i+cua+caball""","""7.2""","""25""","""1""","""0""","""0""","""0.21""","""0""","""1.00""","""7.20""","""1.80""","""5.40""","""0.00""","""0.00""","""0.00""","""0.21""","""0.00""","""0.21""","""0.00""","""0.00""","""0.00""","""0.00""","""0.00""","""0.00"""
""""""
"""""","""""","""""","""""","""""","""""","""""","""""","""""","""32""","""138.08""","""39.94""","""98.14""","""0.00""","""0.00""","""0.00""","""6.72""","""0.00""","""6.72""","""0.00""","""0.00""","""0.00""","""0.00""","""0.00""","""0.00"""
"""""","""""","""""","""""","""""","""""","""""","""""","""""","""Total Transport productes Cac:""","""6.72""","""0""","""6.72"""
"""""","""""","""""","""""","""""","""""","""""","""""","""""","""Total TRANSPORT Intercanvis rebosts (0.00 kg, l...):""","""0.00""","""0.00""","""0.00"""
"""""","""""","""""","""""","""""","""""","""""","""""","""""","""Total Factura :""","""144.80""","""39.94""","""104.86"""
