"""Comanda Actual:""","""Rebost Ecoxarxa del Montseny""","""""","""""","""""",""""""
"""Periode pre-comanda:""","""5-11-12:15-11-12"""
"""Data:""","""22-06-2014 10:13:22"""
"""id""","""producte""","""preu""","""ms""","""format""","""pes""","""Quantitat""","""cost Unitats""","""cost Ecos""","""cost Euros"""
"""265""","""Ametlla+amb+cloba+-+Marcona+-+bossa+3kg""","""2.63""","""25""","""3""","""1""","""3.00""","""7.89""","""1.97""","""5.92"""
"""292""","""Arr%F2s+integral+ECO%2C+envasat+al+buit+%281kg%29""","""2.81""","""0""","""1""","""1.01""","""12.00""","""33.72""","""0.00""","""33.72"""
"""253""","""avellana+amb+clova++%283+kg%29""","""3.38""","""30""","""3""","""1""","""3.00""","""10.14""","""3.04""","""7.10"""
"""101""","""mill+%281kg%29""","""1.81""","""0""","""1""","""1.01""","""2.00""","""3.62""","""0.00""","""3.62"""
"""98""","""oli+oliva+Arbequina+-+5l+%28Beran%E7a%29""","""23""","""5""","""1""","""5.1""","""1.00""","""23.00""","""1.15""","""21.85"""
"""26""","""pasta+dents+%2880+ml%29""","""5""","""25""","""1""","""0.1""","""1.00""","""5.00""","""1.25""","""3.75"""
"""52""","""s%E8sam+BIO+-+EKO%2FSKAL+-+Bolivia+%28bosses+1+kg%29""","""4.03""","""0""","""1""","""1.01""","""3.00""","""12.09""","""0.00""","""12.09"""
"""90""","""sucre+integral+de+canya+daurada+-+bio+%281kg%29+""","""2.52""","""0""","""1""","""1.01""","""1.00""","""2.52""","""0.00""","""2.52"""
"""106""","""Xamp%FA+Ortiga+i+cua+caball""","""7.2""","""25""","""1""","""0.26""","""1.00""","""7.20""","""1.80""","""5.40"""
"""136""","""Xamp%FA+S%E0lvia+i+Roman%ED+BIO+%28+250+ml%29""","""7.2""","""25""","""1""","""0.28""","""2.00""","""14.40""","""3.60""","""10.80"""
""""""
"""""","""Total Productes""","""""","""""","""""","""""","""29""","""119.58""","""12.81""","""106.77"""
"""""","""Total Cost Transport Productes CAC:""","""""","""""","""""","""""","""""","""5.71""","""0""","""5.71"""
"""""","""Total TRANSPORT Intercanvis rebosts:""","""""","""""","""""","""""","""0.00""","""0.00""","""0.00""","""0.00"""
"""""","""Total Factura:""","""""","""""","""""","""""","""""","""125.29""","""12.81""","""112.48"""
