"""Comanda Actual:""","""PB-Ca Nostra""","""""","""""","""""","""""","""""","""""",""""""
"""Periode pre-comanda:""","""17-07-14:22-07-14"""
"""Data:""","""19-07-2014 06:38:17"""
"""id""","""producte""","""preu""","""ms""","""format""","""cost_transport_extern_kg""","""ms_ctek""","""cost_transport_intern_kg""","""ms_ctik""","""Quantitat""","""cost Unitats""","""cost Ecos""","""cost Euros""","""ctek Unitats""","""ctek Ecos""","""ctek Euros""","""ctik Unitats""","""ctik Ecos""","""ctik Euros""","""ctear Unitats""","""ctear Ecos""","""ctear Euros""","""ctiar Unitats""","""ctiar Ecos""","""ctiar Euros"""
"""292""","""Arr%F2s+integral+ECO%2C+envasat+al+buit+%281kg%29""","""2.81""","""0""","""1""","""0""","""0""","""0.21""","""0""","""10.00""","""28.10""","""0.00""","""28.10""","""0.00""","""0.00""","""0.00""","""2.10""","""0.00""","""2.10""","""0.00""","""0.00""","""0.00""","""0.00""","""0.00""","""0.00"""
"""302""","""carquinyolis+%28320-350+gr%29""","""5.4""","""20""","""1""","""0""","""0""","""0.21""","""0""","""1.00""","""5.40""","""1.08""","""4.32""","""0.00""","""0.00""","""0.00""","""0.21""","""0.00""","""0.21""","""0.00""","""0.00""","""0.00""","""0.00""","""0.00""","""0.00"""
"""59""","""crema+hidratant+pel+cos+%28+250+ml%29""","""15""","""25""","""1""","""0""","""0""","""0.21""","""0""","""1.00""","""15.00""","""3.75""","""11.25""","""0.00""","""0.00""","""0.00""","""0.21""","""0.00""","""0.21""","""0.00""","""0.00""","""0.00""","""0.00""","""0.00""","""0.00"""
"""97""","""farina+arr%F2s+integral+%281+kg%29""","""2.49""","""10""","""1""","""0""","""0""","""0.21""","""0""","""5.00""","""12.45""","""1.25""","""11.21""","""0.00""","""0.00""","""0.00""","""1.05""","""0.00""","""1.05""","""0.00""","""0.00""","""0.00""","""0.00""","""0.00""","""0.00"""
"""278""","""Farina+Bon+Pain+%28sac+de+1+Kg%29""","""1.42""","""10""","""1""","""0""","""0""","""0.21""","""0""","""8.00""","""11.36""","""1.14""","""10.22""","""0.00""","""0.00""","""0.00""","""1.68""","""0.00""","""1.68""","""0.00""","""0.00""","""0.00""","""0.00""","""0.00""","""0.00"""
"""98""","""oli+oliva+Arbequina+-+5l+%28Beran%E7a%29""","""23""","""0""","""1""","""0""","""0""","""0.21""","""0""","""1.00""","""23.00""","""0.00""","""23.00""","""0.00""","""0.00""","""0.00""","""0.21""","""0.00""","""0.21""","""0.00""","""0.00""","""0.00""","""0.00""","""0.00""","""0.00"""
"""137""","""Pasta+dent%EDfrica+S%E0lvia+BIO+%28+120+ml%29""","""4""","""25""","""1""","""0""","""0""","""0.21""","""0""","""1.00""","""4.00""","""1.00""","""3.00""","""0.00""","""0.00""","""0.00""","""0.21""","""0.00""","""0.21""","""0.00""","""0.00""","""0.00""","""0.00""","""0.00""","""0.00"""
"""175""","""Tahin-Pasta+de+S%E8sam+%28250+grs%29""","""5""","""50""","""1""","""0""","""0""","""0.21""","""0""","""2.00""","""10.00""","""5.00""","""5.00""","""0.00""","""0.00""","""0.00""","""0.42""","""0.00""","""0.42""","""0.00""","""0.00""","""0.00""","""0.00""","""0.00""","""0.00"""
"""344""","""tallarines+integrals+%28bossa+250+gr%29""","""1.5""","""30""","""1""","""0""","""0""","""0.21""","""0""","""4.00""","""6.00""","""1.80""","""4.20""","""0.00""","""0.00""","""0.00""","""0.84""","""0.00""","""0.84""","""0.00""","""0.00""","""0.00""","""0.00""","""0.00""","""0.00"""
"""345""","""tallarines+integrals+d%27espirulina+%28bossa+250+gr%29""","""2""","""30""","""1""","""0""","""0""","""0.21""","""0""","""6.00""","""12.00""","""3.60""","""8.40""","""0.00""","""0.00""","""0.00""","""1.26""","""0.00""","""1.26""","""0.00""","""0.00""","""0.00""","""0.00""","""0.00""","""0.00"""
"""135""","""Xamp%FA+Camamilla+i+C%FArcuma+BIO%28+250+ml%29""","""7.2""","""25""","""1""","""0""","""0""","""0.21""","""0""","""1.00""","""7.20""","""1.80""","""5.40""","""0.00""","""0.00""","""0.00""","""0.21""","""0.00""","""0.21""","""0.00""","""0.00""","""0.00""","""0.00""","""0.00""","""0.00"""
"""106""","""Xamp%FA+Ortiga+i+cua+caball""","""7.2""","""25""","""1""","""0""","""0""","""0.21""","""0""","""1.00""","""7.20""","""1.80""","""5.40""","""0.00""","""0.00""","""0.00""","""0.21""","""0.00""","""0.21""","""0.00""","""0.00""","""0.00""","""0.00""","""0.00""","""0.00"""
""""""
"""""","""""","""""","""""","""""","""""","""""","""""","""""","""41""","""141.71""","""22.22""","""119.50""","""0.00""","""0.00""","""0.00""","""8.61""","""0.00""","""8.61""","""0.00""","""0.00""","""0.00""","""0.00""","""0.00""","""0.00"""
"""""","""""","""""","""""","""""","""""","""""","""""","""""","""Total Transport productes Cac:""","""8.61""","""0""","""8.61"""
"""""","""""","""""","""""","""""","""""","""""","""""","""""","""Total TRANSPORT Intercanvis rebosts (0.00 kg, l...):""","""0.00""","""0.00""","""0.00"""
"""""","""""","""""","""""","""""","""""","""""","""""","""""","""Total Factura :""","""150.32""","""22.22""","""128.11"""
