"""Comanda Actual:""","""PB-EL OBRADOR DE CARO""","""""","""""","""""",""""""
"""Periode pre-comanda:""","""17-07-14:22-07-14"""
"""Data:""","""21-07-2014 04:54:11"""
"""id""","""producte""","""preu""","""ms""","""format""","""pes""","""Quantitat""","""cost Unitats""","""cost Ecos""","""cost Euros"""
"""334""","""BOTONS+d%27arr%F2s+i+gomasi+%28200-220+gr%29++""","""2.25""","""100""","""1""","""0.2""","""1.00""","""2.25""","""2.25""","""0.00"""
"""339""","""ESTELS+%96+galetes+de+gingebre+i+xocolata+%28360-380+gr%29""","""5.5""","""50""","""1""","""0.37""","""1.00""","""5.50""","""2.75""","""2.75"""
"""98""","""oli+oliva+Arbequina+-+5l+%28Beran%E7a%29""","""23""","""0""","""1""","""5.1""","""1.00""","""23.00""","""0.00""","""23.00"""
"""90""","""sucre+integral+de+canya+daurada+-+bio+%281kg%29+""","""2.52""","""0""","""1""","""1.01""","""1.00""","""2.52""","""0.00""","""2.52"""
"""344""","""tallarines+integrals+%28bossa+250+gr%29""","""1.5""","""30""","""1""","""0.25""","""2.00""","""3.00""","""0.90""","""2.10"""
"""345""","""tallarines+integrals+d%27espirulina+%28bossa+250+gr%29""","""2""","""30""","""1""","""0.25""","""2.00""","""4.00""","""1.20""","""2.80"""
""""""
"""""","""Total Productes""","""""","""""","""""","""""","""8""","""40.27""","""7.1""","""33.17"""
"""""","""Total Cost Transport Productes CAC:""","""""","""""","""""","""""","""""","""1.62""","""0""","""1.62"""
"""""","""Total TRANSPORT Intercanvis rebosts:""","""""","""""","""""","""""","""0.00""","""0.00""","""0.00""","""0.00"""
"""""","""Total Factura:""","""""","""""","""""","""""","""""","""41.89""","""7.10""","""34.79"""
