"""Comanda Actual:""","""Rebost Iluro""","""""","""""","""""","""""","""""","""""",""""""
"""Periode pre-comanda:""","""5-11-12:15-11-12"""
"""Data:""","""23-06-2014 09:14:19"""
"""id""","""producte""","""preu""","""ms""","""format""","""cost_transport_extern_kg""","""ms_ctek""","""cost_transport_intern_kg""","""ms_ctik""","""Quantitat""","""cost Unitats""","""cost Ecos""","""cost Euros""","""ctek Unitats""","""ctek Ecos""","""ctek Euros""","""ctik Unitats""","""ctik Ecos""","""ctik Euros""","""ctear Unitats""","""ctear Ecos""","""ctear Euros""","""ctiar Unitats""","""ctiar Ecos""","""ctiar Euros"""
"""314""","""alcoholat+de+roman%ED+%28125+ml%29""","""7""","""25""","""1""","""0""","""0""","""0.21""","""0""","""1.00""","""7.00""","""1.75""","""5.25""","""0.00""","""0.00""","""0.00""","""0.21""","""0.00""","""0.21""","""0.00""","""0.00""","""0.00""","""0.00""","""0.00""","""0.00"""
"""265""","""Ametlla+amb+cloba+-+Marcona+-+bossa+3kg""","""2.63""","""25""","""3""","""0""","""0""","""0""","""0""","""6.00""","""15.78""","""3.95""","""11.84""","""0.00""","""0.00""","""0.00""","""0.00""","""0.00""","""0.00""","""0.00""","""0.00""","""0.00""","""0.00""","""0.00""","""0.00"""
"""313""","""argila+blanca+%28500+gr%29""","""6""","""25""","""1""","""0""","""0""","""0.21""","""0""","""1.00""","""6.00""","""1.50""","""4.50""","""0.00""","""0.00""","""0.00""","""0.21""","""0.00""","""0.21""","""0.00""","""0.00""","""0.00""","""0.00""","""0.00""","""0.00"""
"""292""","""Arr%F2s+integral+ECO%2C+envasat+al+buit+%281kg%29""","""2.81""","""0""","""1""","""0""","""0""","""0.21""","""0""","""2.00""","""5.62""","""0.00""","""5.62""","""0.00""","""0.00""","""0.00""","""0.42""","""0.00""","""0.42""","""0.00""","""0.00""","""0.00""","""0.00""","""0.00""","""0.00"""
"""64""","""avellana+amb+clova++%28bossa+4+kg%29""","""3.38""","""30""","""4""","""0""","""0""","""0.21""","""0""","""4.00""","""13.52""","""4.06""","""9.46""","""0.00""","""0.00""","""0.00""","""0.84""","""0.00""","""0.84""","""0.00""","""0.00""","""0.00""","""0.00""","""0.00""","""0.00"""
"""92""","""bosses+paper+15X27cm+%2850%29+""","""2.33""","""0""","""1""","""0""","""0""","""0.21""","""0""","""3.00""","""6.99""","""0.00""","""6.99""","""0.00""","""0.00""","""0.00""","""0.63""","""0.00""","""0.63""","""0.00""","""0.00""","""0.00""","""0.00""","""0.00""","""0.00"""
"""93""","""bosses+paper+18X32cm+%2850%29+""","""3.37""","""0""","""1""","""0""","""0""","""0.21""","""0""","""3.00""","""10.11""","""0.00""","""10.11""","""0.00""","""0.00""","""0.00""","""0.63""","""0.00""","""0.63""","""0.00""","""0.00""","""0.00""","""0.00""","""0.00""","""0.00"""
"""94""","""bosses+paper+28X47+cm2+%2850%29+""","""7.45""","""0""","""1""","""0""","""0""","""0.21""","""0""","""3.00""","""22.35""","""0.00""","""22.35""","""0.00""","""0.00""","""0.00""","""0.63""","""0.00""","""0.63""","""0.00""","""0.00""","""0.00""","""0.00""","""0.00""","""0.00"""
"""154""","""caf%E8+en+gra+Rebeldia+%28+1+kg+%29+-+Chiapas""","""11.2""","""0""","""1""","""0""","""0""","""0.21""","""0""","""1.00""","""11.20""","""0.00""","""11.20""","""0.00""","""0.00""","""0.00""","""0.21""","""0.00""","""0.21""","""0.00""","""0.00""","""0.00""","""0.00""","""0.00""","""0.00"""
"""153""","""caf%E8+m%F2lt+Rebeldia+%28250+gr%29+-Chiapas""","""3""","""0""","""1""","""0""","""0""","""0.21""","""0""","""6.00""","""18.00""","""0.00""","""18.00""","""0.00""","""0.00""","""0.00""","""1.26""","""0.00""","""1.26""","""0.00""","""0.00""","""0.00""","""0.00""","""0.00""","""0.00"""
"""311""","""Codonyat+%28400+gr+-+al+buit%29""","""6""","""50""","""1""","""0""","""0""","""0.21""","""0""","""1.00""","""6.00""","""3.00""","""3.00""","""0.00""","""0.00""","""0.00""","""0.21""","""0.00""","""0.21""","""0.00""","""0.00""","""0.00""","""0.00""","""0.00""","""0.00"""
"""158""","""crema+de+mans+%2880+ml%29""","""8""","""25""","""1""","""0""","""0""","""0.21""","""0""","""1.00""","""8.00""","""2.00""","""6.00""","""0.00""","""0.00""","""0.00""","""0.21""","""0.00""","""0.21""","""0.00""","""0.00""","""0.00""","""0.00""","""0.00""","""0.00"""
"""169""","""Detergent+l%EDquid+rentadora+i+terra+%285+l.%29""","""16.75""","""25""","""1""","""0""","""0""","""0.21""","""0""","""1.00""","""16.75""","""4.19""","""12.56""","""0.00""","""0.00""","""0.00""","""0.21""","""0.00""","""0.21""","""0.00""","""0.00""","""0.00""","""0.00""","""0.00""","""0.00"""
"""164""","""Farina integral blat egipci (kamut -1 kg)""","""1.6""","""10""","""1""","""0""","""0""","""0.21""","""0""","""1.00""","""1.60""","""0.16""","""1.44""","""0.00""","""0.00""","""0.00""","""0.21""","""0.00""","""0.21""","""0.00""","""0.00""","""0.00""","""0.00""","""0.00""","""0.00"""
"""44""","""farina+xeixa+integral+%281+kg%29""","""1.58""","""10""","""1""","""0""","""0""","""0.21""","""0""","""4.00""","""6.32""","""0.63""","""5.69""","""0.00""","""0.00""","""0.00""","""0.84""","""0.00""","""0.84""","""0.00""","""0.00""","""0.00""","""0.00""","""0.00""","""0.00"""
"""28""","""gra+-+blat+egipci+%28kamut+-+1+kg%29""","""1.22""","""10""","""1""","""0""","""0""","""0.21""","""0""","""1.00""","""1.22""","""0.12""","""1.10""","""0.00""","""0.00""","""0.00""","""0.21""","""0.00""","""0.21""","""0.00""","""0.00""","""0.00""","""0.00""","""0.00""","""0.00"""
"""338""","""IRENE%92S+%96galetes+de+poma%2Cametlla+i+melassa+%28440-450+gr%29""","""5.4""","""50""","""1""","""0""","""0""","""0.21""","""0""","""1.00""","""5.40""","""2.70""","""2.70""","""0.00""","""0.00""","""0.00""","""0.21""","""0.00""","""0.21""","""0.00""","""0.00""","""0.00""","""0.00""","""0.00""","""0.00"""
"""340""","""llentia+pardina+%281+kg%29""","""2.5""","""10""","""1""","""0""","""0""","""0.21""","""0""","""3.00""","""7.50""","""0.75""","""6.75""","""0.00""","""0.00""","""0.00""","""0.63""","""0.00""","""0.63""","""0.00""","""0.00""","""0.00""","""0.00""","""0.00""","""0.00"""
"""299""","""Melmelada+mandarina%28+480+ml%29++""","""2.6""","""100""","""1""","""0""","""0""","""0.21""","""0""","""1.00""","""2.60""","""2.60""","""0.00""","""0.00""","""0.00""","""0.00""","""0.21""","""0.00""","""0.21""","""0.00""","""0.00""","""0.00""","""0.00""","""0.00""","""0.00"""
"""296""","""Melmelada+mandarina+%28+480+ml%29++""","""2.6""","""100""","""1""","""0""","""0""","""0.21""","""0""","""1.00""","""2.60""","""2.60""","""0.00""","""0.00""","""0.00""","""0.00""","""0.21""","""0.00""","""0.21""","""0.00""","""0.00""","""0.00""","""0.00""","""0.00""","""0.00"""
"""297""","""Melmelada+mandarina+%28+480+ml%29++""","""2.6""","""100""","""1""","""0""","""0""","""0.21""","""0""","""1.00""","""2.60""","""2.60""","""0.00""","""0.00""","""0.00""","""0.00""","""0.21""","""0.00""","""0.21""","""0.00""","""0.00""","""0.00""","""0.00""","""0.00""","""0.00"""
"""298""","""Melmelada+mandarina+doble+llimona+%28480+ml%29++""","""2.6""","""100""","""1""","""0""","""0""","""0.21""","""0""","""1.00""","""2.60""","""2.60""","""0.00""","""0.00""","""0.00""","""0.00""","""0.21""","""0.00""","""0.21""","""0.00""","""0.00""","""0.00""","""0.00""","""0.00""","""0.00"""
"""305""","""Mix+galetes+artesanes%28330+gr%29""","""4""","""30""","""1""","""0""","""0""","""0.21""","""0""","""1.00""","""4.00""","""1.20""","""2.80""","""0.00""","""0.00""","""0.00""","""0.21""","""0.00""","""0.21""","""0.00""","""0.00""","""0.00""","""0.00""","""0.00""","""0.00"""
"""99""","""Mongeta+seca+%281+kg%29""","""2.45""","""0""","""1""","""0""","""0""","""0.21""","""0""","""3.00""","""7.35""","""0.00""","""7.35""","""0.00""","""0.00""","""0.00""","""0.63""","""0.00""","""0.63""","""0.00""","""0.00""","""0.00""","""0.00""","""0.00""","""0.00"""
"""316""","""oli+massatge+%3A+muscular%2C+relaxant+i+per+a+beb%E8s+%28125+ml%29""","""10""","""25""","""1""","""0""","""0""","""0.21""","""0""","""1.00""","""10.00""","""2.50""","""7.50""","""0.00""","""0.00""","""0.00""","""0.21""","""0.00""","""0.21""","""0.00""","""0.00""","""0.00""","""0.00""","""0.00""","""0.00"""
"""98""","""oli+oliva+Arbequina+-+5l+%28Beran%E7a%29""","""23""","""5""","""1""","""0""","""0""","""0.21""","""0""","""2.00""","""46.00""","""2.30""","""43.70""","""0.00""","""0.00""","""0.00""","""0.42""","""0.00""","""0.42""","""0.00""","""0.00""","""0.00""","""0.00""","""0.00""","""0.00"""
"""235""","""p%E8sols""","""2.84""","""15""","""1""","""0""","""0""","""0.21""","""0""","""4.00""","""11.36""","""1.70""","""9.66""","""0.00""","""0.00""","""0.00""","""0.84""","""0.00""","""0.84""","""0.00""","""0.00""","""0.00""","""0.00""","""0.00""","""0.00"""
"""137""","""Pasta+dent%EDfrica+S%E0lvia+BIO+%28+120+ml%29""","""4""","""25""","""1""","""0""","""0""","""0.21""","""0""","""1.00""","""4.00""","""1.00""","""3.00""","""0.00""","""0.00""","""0.00""","""0.21""","""0.00""","""0.21""","""0.00""","""0.00""","""0.00""","""0.00""","""0.00""","""0.00"""
"""26""","""pasta+dents+%2880+ml%29""","""5""","""25""","""1""","""0""","""0""","""0.21""","""0""","""1.00""","""5.00""","""1.25""","""3.75""","""0.00""","""0.00""","""0.00""","""0.21""","""0.00""","""0.21""","""0.00""","""0.00""","""0.00""","""0.00""","""0.00""","""0.00"""
"""52""","""s%E8sam+BIO+-+EKO%2FSKAL+-+Bolivia+%28bosses+1+kg%29""","""4.03""","""0""","""1""","""0""","""0""","""0.21""","""0""","""1.00""","""4.03""","""0.00""","""4.03""","""0.00""","""0.00""","""0.00""","""0.21""","""0.00""","""0.21""","""0.00""","""0.00""","""0.00""","""0.00""","""0.00""","""0.00"""
"""329""","""SAB%D3+4+OLIS+amb+ARGILA+BLANCA+i+BICARBONAT+%28100-120+gr%29""","""2""","""50""","""1""","""0""","""0""","""0.21""","""0""","""1.00""","""2.00""","""1.00""","""1.00""","""0.00""","""0.00""","""0.00""","""0.21""","""0.00""","""0.21""","""0.00""","""0.00""","""0.00""","""0.00""","""0.00""","""0.00"""
"""323""","""SAB%D3+de+CASTELLA+%28100-120+gr%29""","""2""","""50""","""1""","""0""","""0""","""0.21""","""0""","""1.00""","""2.00""","""1.00""","""1.00""","""0.00""","""0.00""","""0.00""","""0.21""","""0.00""","""0.21""","""0.00""","""0.00""","""0.00""","""0.00""","""0.00""","""0.00"""
"""325""","""SAB%D3+de+LAVANDA+%28100-120+gr%29""","""2""","""50""","""1""","""0""","""0""","""0.21""","""0""","""1.00""","""2.00""","""1.00""","""1.00""","""0.00""","""0.00""","""0.00""","""0.21""","""0.00""","""0.21""","""0.00""","""0.00""","""0.00""","""0.00""","""0.00""","""0.00"""
"""331""","""SAB%D3+per+a+PELLS+GRASSES+%28100-120+gr%29""","""2""","""50""","""1""","""0""","""0""","""0.21""","""0""","""1.00""","""2.00""","""1.00""","""1.00""","""0.00""","""0.00""","""0.00""","""0.21""","""0.00""","""0.21""","""0.00""","""0.00""","""0.00""","""0.00""","""0.00""","""0.00"""
"""284""","""Sab%F3+d%27algues+i+olis+essencials""","""2""","""50""","""1""","""0""","""0""","""0.21""","""0""","""1.00""","""2.00""","""1.00""","""1.00""","""0.00""","""0.00""","""0.00""","""0.21""","""0.00""","""0.21""","""0.00""","""0.00""","""0.00""","""0.00""","""0.00""","""0.00"""
"""283""","""Sab%F3+de+llet%2C+olis+essencials+i+oli+oliva""","""2""","""50""","""1""","""0""","""0""","""0.21""","""0""","""1.00""","""2.00""","""1.00""","""1.00""","""0.00""","""0.00""","""0.00""","""0.21""","""0.00""","""0.21""","""0.00""","""0.00""","""0.00""","""0.00""","""0.00""","""0.00"""
"""62""","""sal+marina+Fina+-+Ecoebre++%281+kg%29""","""1.05""","""10""","""1""","""0""","""0""","""0.21""","""0""","""3.00""","""3.15""","""0.32""","""2.84""","""0.00""","""0.00""","""0.00""","""0.63""","""0.00""","""0.63""","""0.00""","""0.00""","""0.00""","""0.00""","""0.00""","""0.00"""
"""285""","""sal+marina+gruixuda+-+Ecoebre++%281+kg%29""","""1.08""","""10""","""1""","""0""","""0""","""0.21""","""0""","""1.00""","""1.08""","""0.11""","""0.97""","""0.00""","""0.00""","""0.00""","""0.21""","""0.00""","""0.21""","""0.00""","""0.00""","""0.00""","""0.00""","""0.00""","""0.00"""
"""90""","""sucre+integral+de+canya+daurada+-+bio+%281kg%29+""","""2.52""","""0""","""1""","""0""","""0""","""0.21""","""0""","""8.00""","""20.16""","""0.00""","""20.16""","""0.00""","""0.00""","""0.00""","""1.68""","""0.00""","""1.68""","""0.00""","""0.00""","""0.00""","""0.00""","""0.00""","""0.00"""
"""175""","""Tahin-Pasta+de+S%E8sam+%28250+grs%29""","""5""","""50""","""1""","""0""","""0""","""0.21""","""0""","""1.00""","""5.00""","""2.50""","""2.50""","""0.00""","""0.00""","""0.00""","""0.21""","""0.00""","""0.21""","""0.00""","""0.00""","""0.00""","""0.00""","""0.00""","""0.00"""
"""135""","""Xamp%FA+Camamilla+i+C%FArcuma+BIO%28+250+ml%29""","""7.2""","""25""","""1""","""0""","""0""","""0.21""","""0""","""2.00""","""14.40""","""3.60""","""10.80""","""0.00""","""0.00""","""0.00""","""0.42""","""0.00""","""0.42""","""0.00""","""0.00""","""0.00""","""0.00""","""0.00""","""0.00"""
"""134""","""Xamp%FA+Malva+i+Cal%E8ndula%28+250+ml%29""","""7.2""","""25""","""1""","""0""","""0""","""0.21""","""0""","""1.00""","""7.20""","""1.80""","""5.40""","""0.00""","""0.00""","""0.00""","""0.21""","""0.00""","""0.21""","""0.00""","""0.00""","""0.00""","""0.00""","""0.00""","""0.00"""
"""106""","""Xamp%FA+Ortiga+i+cua+caball""","""7.2""","""25""","""1""","""0""","""0""","""0.21""","""0""","""1.00""","""7.20""","""1.80""","""5.40""","""0.00""","""0.00""","""0.00""","""0.21""","""0.00""","""0.21""","""0.00""","""0.00""","""0.00""","""0.00""","""0.00""","""0.00"""
"""136""","""Xamp%FA+S%E0lvia+i+Roman%ED+BIO+%28+250+ml%29""","""7.2""","""25""","""1""","""0""","""0""","""0.21""","""0""","""1.00""","""7.20""","""1.80""","""5.40""","""0.00""","""0.00""","""0.00""","""0.21""","""0.00""","""0.21""","""0.00""","""0.00""","""0.00""","""0.00""","""0.00""","""0.00"""
""""""
"""""","""""","""""","""""","""""","""""","""""","""""","""""","""85""","""348.89""","""63.09""","""285.81""","""0.00""","""0.00""","""0.00""","""16.59""","""0.00""","""16.59""","""0.00""","""0.00""","""0.00""","""0.00""","""0.00""","""0.00"""
"""""","""""","""""","""""","""""","""""","""""","""""","""""","""Total Transport productes Cac:""","""16.59""","""0""","""16.59"""
"""""","""""","""""","""""","""""","""""","""""","""""","""""","""Total TRANSPORT Intercanvis rebosts (0.00 kg, l...):""","""0.00""","""0.00""","""0.00"""
"""""","""""","""""","""""","""""","""""","""""","""""","""""","""Total Factura :""","""365.48""","""63.09""","""302.40"""
