"""Comanda Actual:""","""Rebost d'Olot""","""""","""""","""""","""""","""""","""""",""""""
"""Periode pre-comanda:""","""5-11-12:15-11-12"""
"""Data:""","""20-06-2014 10:42:39"""
"""id""","""producte""","""preu""","""ms""","""format""","""cost_transport_extern_kg""","""ms_ctek""","""cost_transport_intern_kg""","""ms_ctik""","""Quantitat""","""cost Unitats""","""cost Ecos""","""cost Euros""","""ctek Unitats""","""ctek Ecos""","""ctek Euros""","""ctik Unitats""","""ctik Ecos""","""ctik Euros""","""ctear Unitats""","""ctear Ecos""","""ctear Euros""","""ctiar Unitats""","""ctiar Ecos""","""ctiar Euros"""
"""125""","""Beguda+de+civada+%28avena%29+en+pols+%281+kg%29""","""3.5""","""50""","""1""","""0""","""0""","""0.21""","""0""","""4.00""","""14.00""","""7.00""","""7.00""","""0.00""","""0.00""","""0.00""","""0.84""","""0.00""","""0.84""","""0.00""","""0.00""","""0.00""","""0.00""","""0.00""","""0.00"""
"""333""","""BOTONS+d%27arr%F2s+%28200+gr%29++""","""2.25""","""100""","""1""","""0""","""0""","""0.21""","""0""","""2.00""","""4.50""","""4.50""","""0.00""","""0.00""","""0.00""","""0.00""","""0.42""","""0.00""","""0.42""","""0.00""","""0.00""","""0.00""","""0.00""","""0.00""","""0.00"""
"""334""","""BOTONS+d%27arr%F2s+i+gomasi+%28200+gr%29++""","""2.25""","""100""","""1""","""0""","""0""","""0.21""","""0""","""2.00""","""4.50""","""4.50""","""0.00""","""0.00""","""0.00""","""0.00""","""0.42""","""0.00""","""0.42""","""0.00""","""0.00""","""0.00""","""0.00""","""0.00""","""0.00"""
"""154""","""caf%E8+en+gra+Rebeldia+%28+1+kg+%29+-+Chiapas""","""11.2""","""0""","""1""","""0""","""0""","""0.21""","""0""","""2.00""","""22.40""","""0.00""","""22.40""","""0.00""","""0.00""","""0.00""","""0.42""","""0.00""","""0.42""","""0.00""","""0.00""","""0.00""","""0.00""","""0.00""","""0.00"""
"""153""","""caf%E8+m%F2lt+Rebeldia+%28250+gr%29+-Chiapas""","""3""","""0""","""1""","""0""","""0""","""0.21""","""0""","""15.00""","""45.00""","""0.00""","""45.00""","""0.00""","""0.00""","""0.00""","""3.15""","""0.00""","""3.15""","""0.00""","""0.00""","""0.00""","""0.00""","""0.00""","""0.00"""
"""117""","""Crema+untable+avellanes+i+garrofa""","""4.25""","""25""","""1""","""0""","""0""","""0.21""","""0""","""4.00""","""17.00""","""4.25""","""12.75""","""0.00""","""0.00""","""0.00""","""0.84""","""0.00""","""0.84""","""0.00""","""0.00""","""0.00""","""0.00""","""0.00""","""0.00"""
"""317""","""Galetes+salades+%28100+gr%29""","""2.9""","""100""","""1""","""0""","""0""","""0.21""","""0""","""2.00""","""5.80""","""5.80""","""0.00""","""0.00""","""0.00""","""0.00""","""0.42""","""0.00""","""0.42""","""0.00""","""0.00""","""0.00""","""0.00""","""0.00""","""0.00"""
"""340""","""llentia+%281+kg%29""","""2.5""","""10""","""1""","""0""","""0""","""0.21""","""0""","""5.00""","""12.50""","""1.25""","""11.25""","""0.00""","""0.00""","""0.00""","""1.05""","""0.00""","""1.05""","""0.00""","""0.00""","""0.00""","""0.00""","""0.00""","""0.00"""
"""62""","""sal+marina+Fina+-+Ecoebre++%281+kg%29""","""1.05""","""10""","""1""","""0""","""0""","""0.21""","""0""","""4.00""","""4.20""","""0.42""","""3.78""","""0.00""","""0.00""","""0.00""","""0.84""","""0.00""","""0.84""","""0.00""","""0.00""","""0.00""","""0.00""","""0.00""","""0.00"""
"""175""","""Tahin-Pasta+de+S%E8sam+%28250+grs%29""","""5""","""50""","""1""","""0""","""0""","""0.21""","""0""","""4.00""","""20.00""","""10.00""","""10.00""","""0.00""","""0.00""","""0.00""","""0.84""","""0.00""","""0.84""","""0.00""","""0.00""","""0.00""","""0.00""","""0.00""","""0.00"""
""""""
"""""","""""","""""","""""","""""","""""","""""","""""","""""","""44""","""149.90""","""37.72""","""112.18""","""0.00""","""0.00""","""0.00""","""9.24""","""0.00""","""9.24""","""0.00""","""0.00""","""0.00""","""0.00""","""0.00""","""0.00"""
"""""","""""","""""","""""","""""","""""","""""","""""","""""","""Total Transport productes Cac:""","""9.24""","""0""","""9.24"""
"""""","""""","""""","""""","""""","""""","""""","""""","""""","""Total TRANSPORT Intercanvis rebosts (0.00 kg, l...):""","""0.00""","""0.00""","""0.00"""
"""""","""""","""""","""""","""""","""""","""""","""""","""""","""Total Factura :""","""159.14""","""37.72""","""121.42"""
