"""Comanda Actual:""","""Rebost de Terrassa""","""""","""""","""""","""""","""""","""""",""""""
"""Periode pre-comanda:""","""5-11-12:15-11-12"""
"""Data:""","""21-05-2014 07:17:36"""
"""id""","""producte""","""preu""","""ms""","""format""","""cost_transport_extern_kg""","""ms_ctek""","""cost_transport_intern_kg""","""ms_ctik""","""Quantitat""","""cost Unitats""","""cost Ecos""","""cost Euros""","""ctek Unitats""","""ctek Ecos""","""ctek Euros""","""ctik Unitats""","""ctik Ecos""","""ctik Euros""","""ctear Unitats""","""ctear Ecos""","""ctear Euros""","""ctiar Unitats""","""ctiar Ecos""","""ctiar Euros"""
""""""
"""""","""""","""""","""""","""""","""""","""""","""""","""""","""0""","""0.00""","""0.00""","""0.00""","""0.00""","""0.00""","""0.00""","""0.00""","""0.00""","""0.00""","""0.00""","""0.00""","""0.00""","""0.00""","""0.00""","""0.00"""
"""""","""""","""""","""""","""""","""""","""""","""""","""""","""Total Transport productes Cac:""","""0""","""0""","""0"""
"""""","""""","""""","""""","""""","""""","""""","""""","""""","""Total TRANSPORT Intercanvis rebosts (0.00 kg, l...):""","""0.00""","""0.00""","""0.00"""
"""""","""""","""""","""""","""""","""""","""""","""""","""""","""Total Factura :""","""0.00""","""0.00""","""0.00"""
