"COOP1741",200
,0
"COOP0245",0
"COOP0374",0
,160
"COOP1269",0
"COOP0799",170
"COOP0014",200
"COOP1479",150
"COOP0246",150
"COOP2065",120
"COOP1517",150
"COOP1625",90
"COOP1802",170
,170
"COOP1576",75
,250
"COOP0873","146,67"
"COOP1753",50
"COOP1985",50
"COOP2213",120
"COOP1005",0
"COOP0004",0
"COOP0245",200
"COOP1752",20
"COOP0942",120
"COOP1121",100
"COOP0479",100
"COOP1711",65
"COOP2168",40
"?",150
"?",150
"COOP0111",200
"?",250
"coop0308",100
"COOP0913",200
"ECOP0002",175
,120
"COOP1130",0
"COOP0386",100
"COOP1445",75
"COOP2251",50
"COOP2159",30
,50
,150
,90
"COOP0671",30
"COOP0221",40
,25
,"73,33"
"COOP0888",200
"COOP0188",100
"COOP1187",200
,200
,50
"?",60
,0
,0
,0
,0
,0
"?",25
,30
