"""Comanda Actual:""","""Rebost Cal Rajolet""","""""","""""","""""",""""""
"""Periode pre-comanda:""","""5-11-12:15-11-12"""
"""Data:""","""20-06-2014 12:46:45"""
"""id""","""producte""","""preu""","""ms""","""format""","""pes""","""Quantitat""","""cost Unitats""","""cost Ecos""","""cost Euros"""
"""313""","""argila+blanca+%28500+gr%29""","""6""","""25""","""1""","""0.5""","""1.00""","""6.00""","""1.50""","""4.50"""
"""334""","""BOTONS+d%27arr%F2s+i+gomasi+%28200+gr%29++""","""2.25""","""100""","""1""","""0.2""","""1.00""","""2.25""","""2.25""","""0.00"""
"""153""","""caf%E8+m%F2lt+Rebeldia+%28250+gr%29+-Chiapas""","""3""","""0""","""1""","""0.25""","""4.00""","""12.00""","""0.00""","""12.00"""
"""117""","""Crema+untable+avellanes+i+garrofa""","""4.25""","""25""","""1""","""0.4""","""1.00""","""4.25""","""1.06""","""3.19"""
"""337""","""GALETES+D%92ARR%D2S+-+ametlla%2C+avellana%2C+gingebre+i+xocolata+%28420-430+gr%29""","""5.5""","""50""","""1""","""0.425""","""1.00""","""5.50""","""2.75""","""2.75"""
"""300""","""oli+hip%E8ric+%28+60+ml%29""","""3""","""100""","""1""","""0.04""","""1.00""","""3.00""","""3.00""","""0.00"""
"""98""","""oli+oliva+Arbequina+-+5l+%28Beran%E7a%29""","""23""","""5""","""1""","""5.1""","""3.00""","""69.00""","""3.45""","""65.55"""
"""137""","""Pasta+dent%EDfrica+S%E0lvia+BIO+%28+120+ml%29""","""4""","""25""","""1""","""0.12""","""1.00""","""4.00""","""1.00""","""3.00"""
"""329""","""SAB%D3+4+OLIS+amb+ARGILA+BLANCA+i+BICARBONAT+%28100-120+gr%29""","""2""","""50""","""1""","""0.11""","""1.00""","""2.00""","""1.00""","""1.00"""
"""330""","""SAB%D3+de+CAF%C9+%28100-120+gr%29""","""2""","""50""","""1""","""0.11""","""1.00""","""2.00""","""1.00""","""1.00"""
"""324""","""SAB%D3+de+COCO+%28100-120+gr%29""","""2""","""50""","""1""","""0.11""","""2.00""","""4.00""","""2.00""","""2.00"""
"""325""","""SAB%D3+de+LAVANDA+%28100-120+gr%29""","""2""","""50""","""1""","""0.11""","""2.00""","""4.00""","""2.00""","""2.00"""
"""322""","""SAB%D3+de+LLIMONA+%28100-120+gr%29""","""2""","""50""","""1""","""0.11""","""1.00""","""2.00""","""1.00""","""1.00"""
"""332""","""SAB%D3+de+MENTA+%28100-120+gr%29""","""2""","""50""","""1""","""0.11""","""1.00""","""2.00""","""1.00""","""1.00"""
"""318""","""Sab%F2+l%EDquid+rentadora%2C+terra%2C+vaixelles+%285+l.%29""","""10""","""25""","""1""","""5.1""","""1.00""","""10.00""","""2.50""","""7.50"""
"""281""","""sab%F2+roba+%28en+pols%2C+oli+oliva%2C+100+gr%29""","""2""","""50""","""1""","""0.1""","""1.00""","""2.00""","""1.00""","""1.00"""
"""284""","""Sab%F3+d%27algues+i+olis+essencials""","""2""","""50""","""1""","""0.1""","""1.00""","""2.00""","""1.00""","""1.00"""
"""283""","""Sab%F3+de+llet%2C+olis+essencials+i+oli+oliva""","""2""","""50""","""1""","""0.1""","""1.00""","""2.00""","""1.00""","""1.00"""
"""62""","""sal+marina+Fina+-+Ecoebre++%281+kg%29""","""1.05""","""10""","""1""","""1.02""","""5.00""","""5.25""","""0.53""","""4.73"""
""""""
"""""","""Total Productes""","""""","""""","""""","""""","""30""","""143.25""","""29.04""","""114.22"""
"""""","""Total Cost Transport Productes CAC:""","""""","""""","""""","""""","""""","""6.16""","""0""","""6.16"""
"""""","""Total TRANSPORT Intercanvis rebosts:""","""""","""""","""""","""""","""0.00""","""0.00""","""0.00""","""0.00"""
"""""","""Total Factura:""","""""","""""","""""","""""","""""","""149.41""","""29.04""","""120.38"""
